Include,All,Study.ID,Author,Feeding.type.5,Feeding.type.3,Quality.Rating,Year,Age.of.infants,SD.infant.ages,Age.group,Number.of.infants,Group.Description,Country,Method,Fuss.or.Cry,Mean.minutes,SD
1,NA,1,Alvarez,Majority (>70% breastfeeding),Mixed,7,2004,3,1.2 days,3-4,118,Whole,Denmark,24-hour behavior diary,Fussing,72,44
1,NA,1,Alvarez,Majority (>70% breastfeeding),Mixed,7,2004,3,1.2 days,3-4,118,Whole,Denmark,24-hour behavior diary,Crying,18,21
1,1,1,Alvarez,Majority (>70% breastfeeding),Mixed,7,2004,3,1.2 days,3-4,118,Whole,Denmark,24-hour behavior diary,Total cry+fuss,90,58
1,NA,1,Alvarez,Majority (>70% breastfeeding),Mixed,7,2004,6,1.3 days,5-6,111,Whole,Denmark,24-hour behavior diary,Fussing,63,55
1,NA,1,Alvarez,Majority (>70% breastfeeding),Mixed,7,2004,6,1.3 days,5-6,111,Whole,Denmark,24-hour behavior diary,Crying,16,22
1,1,1,Alvarez,Majority (>70% breastfeeding),Mixed,7,2004,6,1.3 days,5-6,111,Whole,Denmark,24-hour behavior diary,Total cry+fuss,79,67
1,NA,1,Alvarez,Majority (>70% breastfeeding),Mixed,7,2004,12,1.6 days,11-12,110,Whole,Denmark,24-hour behavior diary,Fussing,38,35
1,NA,1,Alvarez,Majority (>70% breastfeeding),Mixed,7,2004,12,1.6 days,11-12,110,Whole,Denmark,24-hour behavior diary,Crying,9,15
1,1,1,Alvarez,Majority (>70% breastfeeding),Mixed,7,2004,12,1.6 days,11-12,110,Whole,Denmark,24-hour behavior diary,Total cry+fuss,48,44
NA,NA,2,Aloisio,Majority (>70% breastfeeding),Mixed,6,2018,1.5,1.9 days,1-2,73,Placebo,Italy,Baby Day Diary,Crying + inconsolable crying,25.5,28.8
NA,NA,2,Aloisio ,Majority (>70% breastfeeding),Mixed,6,2018,1.5,1.9 days,1-2,82,Probiotic,Italy,Baby Day Diary,Crying + inconsolable crying,28.8,37.7
1,1,2,Aloisio ,Majority (>70% breastfeeding),Mixed,6,2018,1.5,1.9 days,1-2,155,Whole,Italy,Baby Day Diary,Crying + inconsolable crying,27.15,33.54646032
1,1,3,Anzman-Frasca,Majority (>70% breastfeeding),Mixed,3,2013,3,Not reported,3-4,49,Control,USA,Adapted Barr diary,Total cry+fuss,88.92,60.59
1,1,3,Anzman-Frasca,Mixed,Mixed,3,2013,16,Not reported,13-17,55,Control,USA,Adapted Barr diary,Total cry+fuss,50.41,32.02
1,NA,4,Atella,Majority (>70% breastfeeding),Mixed,5,2003,6,Not reported,5-6,106,Whole,USA,Baby Day Diary,Crying,28,33
1,NA,4,Atella,Majority (>70% breastfeeding),Mixed,5,2003,6,Not reported,5-6,106,Whole,USA,Baby Day Diary,Fussing,96,53
1,1,4,Atella,Majority (>70% breastfeeding),Mixed,5,2003,6,Not reported,5-6,106,Whole,USA,Baby Day Diary,Total cry+fuss,124,62.43396512
1,1,5,Baildam,Majority bottlefeeding,Mixed,6,1995,6,Not reported,5-6,157,Whole,UK,24-hour diary,Crying,42.7,46.7
1,1,5,Baildam,Majority bottlefeeding,Mixed,6,1995,13,Not reported,13-17,157,Whole,UK,24-hour diary,Crying,29.3,43.3
1,1,5,Baildam,Majority bottlefeeding,Mixed,6,1995,26,Not reported,23-27,146,Whole,UK,24-hour diary,Crying,21.3,27.8
1,1,5,Baildam,Majority bottlefeeding,Bottle only,6,1995,52,Not reported,38+,149,Whole,UK,24-hour diary,Crying,13.3,19.7
NA,NA,6,Barr,Breastfeeding only,Breastfeeding only,8,1989,6,5.5 - 7 weeks,5-6,283,Breastfed,Canada,24-hour behavior diary,Total cry+fuss,92.9,61.1
NA,NA,6,Barr,Bottle only,Bottle only,8,1989,6,5.5 - 7 weeks,5-6,91,Bottlefed,Canada,24-hour behavior diary,Total cry+fuss,88.7,65.7
1,1,6,Barr,NA,NA,8,1989,6,5.5 - 7 weeks,5-6,374,Whole,Canada,24-hour behavior diary,Total cry+fuss,91.8780749,62.24408509
1,1,9,Bilgin,Majority bottlefeeding,Mixed,5,2020,13,Not reported,13-17,105,Full-term,UK,CPQ,Total cry+fuss,79.84,70.52
1,1,9,Bilgin,NA,NA,5,2020,26,Not reported,23-27,105,Full-term,UK,CPQ,Total cry+fuss,63.3,65.38
1,NA,10,Blum,NA,NA,4,2002,5,Not reported,5-6,60,Whole,USA,Baby day Diary,Total cry+fuss,140.9,75.1
1,1,10,Blum,NA,NA,4,2002,6,Not reported,5-6,59,Whole,USA,Baby day Diary,Total cry+fuss,127.1,69.9
1,1,10,Blum,NA,NA,4,2002,8,Not reported,7-8,58,Whole,USA,Baby day Diary,Total cry+fuss,97.9,46.9
1,NA,11,Bolten,NA,NA,3,2012,6,Not reported,5-6,120,Whole,Switzerland,German adaptation of Barr's diary,Fussing,107.5,63.1
1,NA,11,Bolten,NA,NA,3,2012,6,Not reported,5-6,120,Whole,Switzerland,German adaptation of Barr's diary,Crying,33.38,31.54
1,1,11,Bolten,NA,NA,3,2012,6,Not reported,5-6,120,Whole,Switzerland,German adaptation of Barr's diary,Total cry+fuss,140.88,70.54347312
1,NA,11,Bolten,NA,NA,3,2012,6,Not reported,5-6,120,Whole,Switzerland,German adaptation of Barr's diary,Unsoothable Crying,3.38,8.12
1,NA,11,Bolten,NA,NA,3,2012,6,Not reported,5-6,120,Whole,Switzerland,German adaptation of Barr's diary,Total Distress,144.26,71.009267
1,1,12,Bonichini,NA,NA,4,2008,2,Not reported,1-2,70,Whole,Italy,Baby day Diary,Total cry+fuss,147.64,90.16
1,1,12,Bonichini,NA,NA,4,2008,5,Not reported,5-6,70,Whole,Italy,Baby day Diary,Total cry+fuss,150.56,100.11
1,1,12,Bonichini,NA,NA,4,2008,8,Not reported,7-8,70,Whole,Italy,Baby day Diary,Total cry+fuss,118.5,78.5
1,1,14,Clifford,Mixed,Mixed,6,2002,6,Not reported,5-6,431,Whole,Canada,Baby day Diary,Total cry+fuss,111.5,65.85
1,1,15,Clifford,NA,NA,5,2002,13,Not reported,13-17,320,Whole,Canada,Baby day Diary,Total cry+fuss,40.08,57.21
1,NA,17,Darlington,Mixed,Mixed,2,2006,8,Not reported,7-8,75,Whole,UK,Baby's day Record,Fussing,74,59
1,NA,17,Darlington,Mixed,Mixed,2,2006,8,Not reported,7-8,75,Whole,UK,Baby's day Record,Crying,36,36
1,1,17,Darlington,Mixed,Mixed,2,2006,8,Not reported,7-8,75,Whole,UK,Baby's day Record,Total cry+fuss,110,69.11584478
1,1,18,DeLeon,Mixed,Mixed,3,2007,36,Not reported,33-37,41,Whole,USA,Infant Care Diary (ICD),Total cry+fuss,63.6,57.6
1,NA,19,Fujiwara,NA,NA,6,2011,5,Not reported,5-6,1065,Whole,Canada,Baby Day Diary,Fussing,102.5,56.1
1,NA,19,Fujiwara,NA,NA,6,2011,5,Not reported,5-6,1065,Whole,Canada,Baby Day Diary,Crying,51.4,37
1,1,19,Fujiwara,NA,NA,6,2011,5,Not reported,5-6,1065,Whole,Canada,Baby Day Diary,Total cry+fuss,153.9,67.20275292
1,NA,19,Fujiwara,NA,NA,6,2011,5,Not reported,5-6,1065,Whole,Canada,Baby Day Diary,Unsoothable Crying,9.5,17.2
1,NA,19,Fujiwara,NA,NA,6,2011,5,Not reported,5-6,1065,Whole,Canada,Baby Day Diary,Total Distress,163.4,75
1,NA,20,Fujiwara,NA,NA,6,2011,5,Not reported,5-6,1857,Whole,USA,Baby Day Diary,Fussing,100.4,51.2
1,NA,20,Fujiwara,NA,NA,6,2011,5,Not reported,5-6,1857,Whole,USA,Baby Day Diary,Crying,42.5,32.6
1,1,20,Fujiwara,NA,NA,6,2011,5,Not reported,5-6,1857,Whole,USA,Baby Day Diary,Total cry+fuss,142.9,60.69761116
1,NA,20,Fujiwara,NA,NA,6,2011,5,Not reported,5-6,1857,Whole,USA,Baby Day Diary,Unsoothable Crying,9.1,17.2
1,NA,20,Fujiwara,NA,NA,6,2011,5,Not reported,5-6,1857,Whole,USA,Baby Day Diary,Total Distress,152,71.8
1,NA,21,Geeraerts,NA,NA,5,2020,24,Not reported,23-27,132,Whole,USA,24-hr diary (Barr),Fussing,55.2,36
1,NA,21,Geeraerts,NA,NA,5,2020,24,Not reported,23-27,132,Whole,USA,24-hr diary (Barr),Crying,17.8,17.1
1,1,21,Geeraerts,NA,NA,5,2020,24,Not reported,23-27,132,Whole,USA,24-hr diary (Barr),Total cry+fuss,73,39.85486169
1,1,22,Harrison,NA,NA,3,2004,6,Not reported,5-6,56,Whole,UK,Barr Baby day Diary,Crying,40,39
1,1,22,Harrison,NA,NA,3,2004,9,Not reported,9-10,56,Whole,UK,Barr Baby day Diary,Crying,34,41
1,1,22,Harrison,NA,NA,3,2004,12,Not reported,11-12,56,Whole,UK,Barr Baby day Diary,Crying,20,24
1,NA,23,Hayes,Majority (>70% breastfeeding),Mixed,4,2011,6,Not reported,5-6,120,Whole,USA,Baby Day Diary,Crying,28.68,NA
1,NA,23,Hayes,Majority (>70% breastfeeding),Mixed,4,2011,6,Not reported,5-6,120,Whole,USA,Baby Day Diary,Fussing,95.02,NA
1,1,23,Hayes,Majority (>70% breastfeeding),Mixed,4,2011,6,Not reported,5-6,120,Whole,USA,Baby Day Diary,Total cry+fuss,123.7,NA
1,1,24,Hechler,Majority (>70% breastfeeding),Mixed,3,2018,2,1.6 days,1-2,68,Whole,the Netherlands,Baby Day Diary,Total Distress,131.85,64.83
1,1,24,Hechler,Majority (>70% breastfeeding),Mixed,3,2018,6,4.79 days,5-6,69,Whole,the Netherlands,Baby Day Diary,Total Distress,134.56,62.88
1,1,24,Hechler,Majority (>70% breastfeeding),Mixed,3,2018,12,2.31 days,11-12,69,Whole,the Netherlands,Baby Day Diary,Total Distress,89.23,48.21
1,1,26,Hiscock,Mixed,Mixed,6,2014,16,Not reported,13-17,259,Control,Australia,Infant behavior diary,Total cry+fuss,90,54
1,1,26,Hiscock,Mixed,Mixed,6,2014,24,Not reported,23-27,215,Control,Australia,Infant behavior diary,Total cry+fuss,78,54
1,NA,27,Hunziker,Breastfeeding only,Breastfeeding only,6,1986,3,Not reported,3-4,50,Control,Canada,24-hour diaries,Total cry+fuss,108,18
1,1,27,Hunziker,Mixed,Mixed,6,1986,4,Not reported,3-4,50,Control,Canada,24-hour diaries,Total cry+fuss,115.8,24
1,1,27,Hunziker,Mixed,Mixed,6,1986,6,Not reported,5-6,50,Control,Canada,24-hour diaries,Total cry+fuss,137.4,36
1,1,27,Hunziker,Mixed,Mixed,6,1986,8,Not reported,7-8,50,Control,Canada,24-hour diaries,Total cry+fuss,115.8,24
1,1,27,Hunziker,Mixed,Mixed,6,1986,12,Not reported,11-12,50,Control,Canada,24-hour diaries,Total cry+fuss,78.6,18
1,1,28,Jordan,NA,NA,3,2020,4,Not reported,3-4,10,Whole,Canada,Baby Day Diary,Total cry+fuss,62.3,30.2
1,1,28,Jordan,NA,NA,3,2020,6,Not reported,5-6,10,Whole,Canada,Baby Day Diary,Total cry+fuss,66.4,31.3
1,1,28,Jordan,NA,NA,3,2020,8,Not reported,7-8,10,Whole,Canada,Baby Day Diary,Total cry+fuss,58.5,36
1,1,28,Jordan,NA,NA,3,2020,12,Not reported,11-12,10,Whole,Canada,Baby Day Diary,Total cry+fuss,50.4,35.6
1,NA,29,Keller,NA,NA,2,1996,13-15,Not reported,13-17,13,Sample 2,Germany,Diaries,Crying,40.5,39.74945573
1,NA,29,Keller,NA,NA,2,1996,13-15,Not reported,13-17,13,Sample 2,Germany,Diaries,Fussing,140.3,112.5756
1,1,29,Keller,NA,NA,2,1996,13-16,Not reported,13-17,13,Sample 3,Germany,Diaries,Total cry+fuss,180.8,119.3871222
1,1,30,Keller,NA,NA,3,1998,13,Not reported,11-12,62,Whole,Germany,Diaries,Crying,84.6,54
1,1,30,Keller,NA,NA,1,1998,52,Not reported,38+,51,Whole,Germany,Diaries,Crying,58.8,42.6
1,1,31,Killerby,Mixed,Mixed,2,1992,6-8,Not reported,7-8,14,Normative,UK,Baby Day Record,Total cry+fuss,102.1,50.4
NA,NA,33,Kivijarvi,NA,NA,2,2004,13,Not reported,13-17,19,Boys,Finland,BDR,Crying,24,21.61272773
NA,NA,33,Kivijarvi,NA,NA,2,2004,13,Not reported,13-17,19,Boys,Finland,BDR,Fussing,76,52.38692585
NA,NA,33,Kivijarvi,NA,NA,2,2004,13,Not reported,13-17,37,Girls,Finland,BDR,Crying,30.5,26.50509385
NA,NA,33,Kivijarvi,NA,NA,2,2004,13,Not reported,13-17,37,Girls,Finland,BDR,Fussing,43,28.95030224
1,1,33,Kivijarvi,NA,NA,2,2004,13,Not reported,13-17,56,Whole,Finland,BDR,Total cry+fuss,82.4910714,45.79949054
1,NA,33,Kivijarvi,NA,NA,2,2004,13,Not reported,13-17,56,Whole,Finland,BDR,Crying,28.2946429,24.98099277
NA,NA,33,Kivijarvi,NA,NA,2,2004,52,Not reported,38+,19,Boys,Finland,BDR,Crying,5.5,8.71894489
NA,NA,33,Kivijarvi,NA,NA,2,2004,52,Not reported,38+,19,Boys,Finland,BDR,Fussing,41.5,32.16302225
NA,NA,33,Kivijarvi,NA,NA,2,2004,52,Not reported,38+,37,Girls,Finland,BDR,Crying,15,14.25692814
NA,NA,33,Kivijarvi,NA,NA,2,2004,52,Not reported,38+,37,Girls,Finland,BDR,Fussing,35,25.38129232
1,1,33,Kivijarvi,NA,NA,2,2004,52,Not reported,38+,56,Whole,Finland,BDR,Total cry+fuss,48.9821429,30.58005886
1,NA,33,Kivijarvi,NA,NA,2,2004,52,Not reported,38+,56,Whole,Finland,BDR,Crying,11.7767857,12.68253392
1,1,34,Korja,NA,NA,3,2008,20,minus/plus 1 week,18-22,36,Full-term controls,Finland,Baby Day Diary,Total cry+fuss,64.9,40.3
NA,1,35,Kramer,Breastfeeding only,Breastfeeding only,4,2001,4,Not reported,3-4,183,Whole,Canada,Behavior diary,Total Distress,149.8,73.5
NA,1,35,Kramer,Mixed,Mixed,4,2001,6,Not reported,5-6,156,Whole,Canada,Behavior diary,Total Distress,131.6,72.5
NA,1,35,Kramer,Mixed,Mixed,4,2001,9,Not reported,9-10,148,Whole,Canada,Behavior diary,Total Distress,107.6,64.6
1,NA,35,Kramer,Breastfeeding only,Breastfeeding only,4,2001,4,Not reported,3-4,91,Control,Canada,Behavior diary,Total cry+fuss,151,NA
1,NA,35,Kramer,Breastfeeding only,Breastfeeding only,4,2001,4,Not reported,3-4,91,Control,Canada,Behavior diary,Unsoothable Crying,9.1,NA
1,NA,35,Kramer,Breastfeeding only,Breastfeeding only,4,2001,4,Not reported,3-4,91,Control,Canada,Behavior diary,Total Distress,160.1,NA
1,NA,35,Kramer,Mixed,Mixed,4,2001,6,Not reported,5-6,78,Control,Canada,Behavior diary,Total cry+fuss,131,NA
1,NA,35,Kramer,Mixed,Mixed,4,2001,6,Not reported,5-6,78,Control,Canada,Behavior diary,Unsoothable Crying,5.2,NA
1,NA,35,Kramer,Mixed,Mixed,4,2001,6,Not reported,5-6,78,Control,Canada,Behavior diary,Total Distress,136.2,NA
1,NA,35,Kramer,Mixed,Mixed,4,2001,9,Not reported,9-10,74,Control,Canada,Behavior diary,Total cry+fuss,104,NA
1,NA,35,Kramer,Mixed,Mixed,4,2001,9,Not reported,9-10,74,Control,Canada,Behavior diary,Unsoothable Crying,6.1,NA
1,NA,35,Kramer,Mixed,Mixed,4,2001,9,Not reported,9-10,74,Control,Canada,Behavior diary,Total Distress,110.1,NA
1,NA,36,Lam,NA,NA,5,2010,5,Not reported,5-6,33,Whole,Canada,Paper diary,Crying,30,24
1,NA,36,Lam,NA,NA,5,2010,5,Not reported,5-6,33,Whole,Canada,Paper diary,Fussing,90,48
1,1,36,Lam,NA,NA,5,2010,5,Not reported,5-6,33,Whole,Canada,Paper diary,Total cry+fuss,120,53.66563146
1,NA,36,Lam,NA,NA,5,2010,5,Not reported,5-6,33,Whole,Canada,Paper diary,Unsoothable Crying,6,12
1,NA,36,Lam,NA,NA,5,2010,5,Not reported,5-6,33,Whole,Canada,Paper diary,Total Distress,126,54.99090834
1,1,37,Lee,NA,NA,2,1994,4,Not reported,3-4,32,Whole,Korea,Diary (similar to Barr),Total cry+fuss,94.2,79.1
1,1,37,Lee,NA,NA,2,1994,8,Not reported,7-8,32,Whole,Korea,Diary (similar to Barr),Total cry+fuss,64.9,56.4
1,1,37,Lee,NA,NA,2,1994,12,Not reported,11-12,32,Whole,Korea,Diary (similar to Barr),Total cry+fuss,57.5,41.3
1,1,37,Lee,NA,NA,2,1994,16,Not reported,13-17,32,Whole,Korea,Diary (similar to Barr),Total cry+fuss,60.8,63.4
1,1,37,Lee,NA,NA,2,1994,24,Not reported,23-27,32,Whole,Korea,Diary (similar to Barr),Total cry+fuss,39.4,29.6
1,1,38,Lee,NA,NA,3,2000,2,Not reported,1-2,143,Home infants,Korea,Diary (Hunziker & Barr 1986),Total cry+fuss,33.2,NA
NA,NA,38,Lee,NA,NA,3,2000,3,Not reported,3-4,143,Home infants,Korea,Diary (Hunziker & Barr 1986),Total cry+fuss,42.1,NA
NA,NA,38,Lee,NA,NA,3,2000,4,Not reported,3-4,143,Home infants,Korea,Diary (Hunziker & Barr 1986),Total cry+fuss,43.9,NA
1,1,38,Lee,NA,NA,3,2000,3-4,Not reported,3-4,143,Home infants,Korea,Diary (Hunziker & Barr 1986),Total cry+fuss,43,NA
NA,NA,38,Lee,NA,NA,3,2000,5,Not reported,5-6,143,Home infants,Korea,Diary (Hunziker & Barr 1986),Total cry+fuss,64.6,NA
NA,NA,38,Lee,NA,NA,3,2000,6,Not reported,5-6,143,Home infants,Korea,Diary (Hunziker & Barr 1986),Total cry+fuss,59.6,NA
1,1,38,Lee,NA,NA,3,2000,5-6,Not reported,5-6,143,Home infants,Korea,Diary (Hunziker & Barr 1986),Total cry+fuss,62.1,NA
NA,NA,38,Lee,NA,NA,3,2000,7,Not reported,7-8,143,Home infants,Korea,Diary (Hunziker & Barr 1986),Total cry+fuss,28.2,NA
NA,NA,38,Lee,NA,NA,3,2000,8,Not reported,7-8,143,Home infants,Korea,Diary (Hunziker & Barr 1986),Total cry+fuss,34.1,NA
1,1,38,Lee,NA,NA,3,2000,7-8,Not reported,7-8,143,Home infants,Korea,Diary (Hunziker & Barr 1986),Total cry+fuss,31.15,NA
NA,NA,38,Lee,NA,NA,3,2000,9,Not reported,9-10,143,Home infants,Korea,Diary (Hunziker & Barr 1986),Total cry+fuss,40.8,NA
NA,NA,38,Lee,NA,NA,3,2000,10,Not reported,9-10,143,Home infants,Korea,Diary (Hunziker & Barr 1986),Total cry+fuss,68.2,NA
1,1,38,Lee,NA,NA,3,2000,9-10,Not reported,9-10,143,Home infants,Korea,Diary (Hunziker & Barr 1986),Total cry+fuss,54.5,NA
NA,NA,38,Lee,NA,NA,3,2000,11,Not reported,11-12,143,Home infants,Korea,Diary (Hunziker & Barr 1986),Total cry+fuss,39.03,NA
NA,NA,38,Lee,NA,NA,3,2000,12,Not reported,11-12,143,Home infants,Korea,Diary (Hunziker & Barr 1986),Total cry+fuss,36.5,NA
1,1,38,Lee,NA,NA,3,2000,11-12,Not reported,11-12,143,Home infants,Korea,Diary (Hunziker & Barr 1986),Total cry+fuss,37.765,NA
NA,NA,38,Lee,NA,NA,3,2000,13,Not reported,13-17,143,Home infants,Korea,Diary (Hunziker & Barr 1986),Total cry+fuss,44.8,NA
NA,NA,38,Lee,NA,NA,3,2000,14,Not reported,13-17,143,Home infants,Korea,Diary (Hunziker & Barr 1986),Total cry+fuss,51.8,NA
NA,NA,38,Lee,NA,NA,3,2000,15,Not reported,13-17,143,Home infants,Korea,Diary (Hunziker & Barr 1986),Total cry+fuss,32.9,NA
NA,NA,38,Lee,NA,NA,3,2000,16,Not reported,13-17,143,Home infants,Korea,Diary (Hunziker & Barr 1986),Total cry+fuss,56.5,NA
NA,NA,38,Lee,NA,NA,3,2000,17,Not reported,13-17,143,Home infants,Korea,Diary (Hunziker & Barr 1986),Total cry+fuss,43.7,NA
1,1,38,Lee,NA,NA,3,2000,13-17,Not reported,13-17,143,Home infants,Korea,Diary (Hunziker & Barr 1986),Total cry+fuss,45.94,NA
1,1,38,Lee,NA,NA,3,2000,18,Not reported,18-22,143,Home infants,Korea,Diary (Hunziker & Barr 1986),Total cry+fuss,24.6,NA
NA,NA,39,Litmanovitz,Bottle only,Bottle only,3,2014,12,Not reported,11-12,8,HBP,Israel,24-hour behaviour diary,Crying,14.9,3.85
NA,NA,39,Litmanovitz,Bottle only,Bottle only,3,2014,12,Not reported,11-12,12,LBP,Israel,24-hour behaviour diary,Crying,63.96,21.76
NA,NA,39,Litmanovitz,Breastfeeding only,Breastfeeding only,3,2014,12,Not reported,11-12,15,BF,Israel,24-hour behaviour diary,Crying,17.81,8.415512
1,1,39,Litmanovitz,NA,NA,3,2014,12,Not reported,11-12,27,Whole,Israel,24-hour behaviour diary,Crying,38.3211111,15.74797179
1,1,40,Lohaus,NA,NA,3,2001,13,Not reported,13-17,20,Whole,Germany,Barr diary,Total cry+fuss,78.82,59.96
NA,NA,42,Lucas,Bottle only,Bottle only,4,1998,2,Not reported,1-2,49,Formula-fed,UK,24-hour behavior diary,Fussing,77,8
NA,NA,42,Lucas,Bottle only,Bottle only,4,1998,2,Not reported,1-2,49,Formula-fed,UK,24-hour behavior diary,Crying,44,5
NA,NA,42,Lucas,Bottle only,Bottle only,4,1998,2,Not reported,1-2,49,Formula-fed,UK,24-hour behavior diary,Total cry+fuss,121,9.433981132
NA,NA,42,Lucas,Bottle only,Bottle only,4,1998,2,Not reported,1-2,49,Formula-fed,UK,24-hour behavior diary,Unsoothable Crying,23,7
NA,NA,42,Lucas,Bottle only,Bottle only,4,1998,2,Not reported,1-2,49,Formula-fed,UK,24-hour behavior diary,Total Distress,144,11.74734012
NA,NA,42,Lucas,Bottle only,Bottle only,4,1998,6,Not reported,5-6,41,Formula-fed,UK,24-hour behavior diary,Fussing,66,7
NA,NA,42,Lucas,Bottle only,Bottle only,4,1998,6,Not reported,5-6,41,Formula-fed,UK,24-hour behavior diary,Crying,36,4
NA,NA,42,Lucas,Bottle only,Bottle only,4,1998,6,Not reported,5-6,41,Formula-fed,UK,24-hour behavior diary,Total cry+fuss,102,8.062257748
NA,NA,42,Lucas,Bottle only,Bottle only,4,1998,6,Not reported,5-6,41,Formula-fed,UK,24-hour behavior,Unsoothable Crying,7,2
NA,NA,42,Lucas,Bottle only,Bottle only,4,1998,6,Not reported,5-6,41,Formula-fed,UK,24-hour behavior,Total Distress,109,8.306623863
NA,NA,42,Lucas,Breastfeeding only,Breastfeeding only,4,1998,2,Not reported,1-2,43,Breastfed,UK,24-hour behavior diary,Fussing,74,8
NA,NA,42,Lucas,Breastfeeding only,Breastfeeding only,4,1998,2,Not reported,1-2,43,Breastfed,UK,24-hour behavior diary,Crying,45,6
NA,NA,42,Lucas,Breastfeeding only,Breastfeeding only,4,1998,2,Not reported,1-2,43,Breastfed,UK,24-hour behavior diary,Total cry+fuss,119,10
NA,NA,42,Lucas,Breastfeeding only,Breastfeeding only,4,1998,2,Not reported,1-2,43,Breastfed,UK,24-hour behavior diary,Unsoothable Crying,4,2
NA,NA,42,Lucas,Breastfeeding only,Breastfeeding only,4,1998,2,Not reported,1-2,43,Breastfed,UK,24-hour behavior diary,Total Distress,123,10.19803903
1,NA,42,Lucas,NA,NA,4,1998,2,Not reported,1-2,92,Whole,UK,24-hour behavior diary,Fussing,75.5978261,8
1,NA,42,Lucas,NA,NA,4,1998,2,Not reported,1-2,92,Whole,UK,24-hour behavior diary,Crying,44.4673913,5.48938369
1,1,42,Lucas,NA,NA,4,1998,2,Not reported,1-2,92,Whole,UK,24-hour behavior diary,Total cry+fuss,120.0652174,9.702233418
1,NA,42,Lucas,NA,NA,4,1998,2,Not reported,1-2,92,Whole,UK,24-hour behavior diary,Unsoothable Crying,14.1195652,5.291502622
1,NA,42,Lucas,NA,NA,4,1998,2,Not reported,1-2,92,Whole,UK,24-hour behavior diary,Total Distress,134.1847826,11.05139508
NA,NA,42,Lucas,Breastfeeding only,Breastfeeding only,4,1998,6,Not reported,5-6,36,Breastfed,UK,24-hour behavior diary,Fussing,89,10
NA,NA,42,Lucas,Breastfeeding only,Breastfeeding only,4,1998,6,Not reported,5-6,36,Breastfed,UK,24-hour behavior diary,Crying,52,8
NA,1,42,Lucas,Breastfeeding only,Breastfeeding only,4,1998,6,Not reported,5-6,36,Breastfed,UK,24-hour behavior diary,Total cry+fuss,141,12.80624847
NA,NA,42,Lucas,Breastfeeding only,Breastfeeding only,4,1998,6,Not reported,5-6,36,Breastfed,UK,24-hour behavior diary,Unsoothable Crying,8,3
NA,NA,42,Lucas,Breastfeeding only,Breastfeeding only,4,1998,6,Not reported,5-6,36,Breastfed,UK,24-hour behavior diary,Total Distress,149,13.15294644
1,NA,42,Lucas,NA,NA,4,1998,6,Not reported,5-6,77,Whole,UK,24-hour behavior diary,Fussing,76.7532468,8.532291603
1,NA,42,Lucas,NA,NA,4,1998,6,Not reported,5-6,77,Whole,UK,24-hour behavior diary,Crying,43.4805195,6.196773354
1,1,42,Lucas,NA,NA,4,1998,6,Not reported,5-6,77,Whole,UK,24-hour behavior diary,Total cry+fuss,120.2337663,10.54514106
1,NA,42,Lucas,NA,NA,4,1998,6,Not reported,5-6,77,Whole,UK,24-hour behavior diary,Unsoothable Crying,7.4675325,2.516611472
1,NA,42,Lucas,NA,NA,4,1998,6,Not reported,5-6,77,Whole,UK,24-hour behavior diary,Total Distress,127.7012988,10.84127914
1,NA,43,Lucassen ,Majority bottlefeeding,Mixed,2,2003,7.7,Not reported,7-8,45,Control,the Netherlands,Barr diary (modified),Crying,50,6.25
1,1,43,Lucassen ,Majority bottlefeeding,Mixed,2,2003,7.7,Not reported,7-8,45,Control,the Netherlands,Barr diary (modified),Total cry+fuss,99,6.3
NA,NA,43,Lucassen ,Majority bottlefeeding,Mixed,2,2003,8,Not reported,7-8,45,Colic,the Netherlands,Barr diary (modified),Total cry+fuss,368,12.1
NA,NA,44,McGlaughlin,NA,NA,1,1999,17,Not reported,13-17,20,Crying infants,UK,CPQ,Crying,54,55
NA,NA,44,McGlaughlin,NA,NA,1,1999,35,Not reported,33-37,20,Crying infants,UK,CPQ,Crying,60,70
NA,NA,44,McGlaughlin,NA,NA,1,1999,52,Not reported,38+,20,Crying infants,UK,CPQ,Crying,44,40
1,1,44,McGlaughlin,NA,NA,1,1999,17,Not reported,13-17,20,Control,UK,CPQ,Crying,38,27
1,1,44,McGlaughlin,NA,NA,1,1999,35,Not reported,33-37,20,Control,UK,CPQ,Crying,31,26
1,1,44,McGlaughlin,NA,NA,1,1999,52,Not reported,38+,20,Control,UK,CPQ,Crying,26,21
1,1,45,McRury,NA,NA,3,2010,1,Not reported,1-2,35,Whole,USA,Baby's Day Diary,Total Distress,132,66
1,1,45,McRury,NA,NA,3,2010,4,Not reported,3-4,16,Control,USA,Baby's Day Diary,Total Distress,126,72
1,1,45,McRury,NA,NA,3,2010,6,Not reported,5-6,16,Control,USA,Baby's Day Diary,Total Distress,114,66
1,1,45,McRury,NA,NA,3,2010,8,Not reported,7-8,17,Control,USA,Baby's Day Diary,Total Distress,90,72
1,1,45,McRury,NA,NA,3,2010,12,Not reported,11-12,14,Control,USA,Baby's Day Diary,Total Distress,72,48
1,1,46,Meijer,Mixed,Mixed,3,2007,7,Not reported,7-8,86,Whole,the Netherlands,CPQ,Total cry+fuss,103,76
1,1,46,Meijer,NA,NA,3,2007,52,Not reported,38+,89,Whole,the Netherlands,CPQ,Total cry+fuss,32,24
NA,NA,47,Milgrom,Majority (>70% breastfeeding),Mixed,5,1995,13,Not reported,13-17,40,Non-depressed mothers,Australia,24-hour schedule,Total cry+fuss,36.5,NA
NA,NA,47,Milgrom,Majority (>70% breastfeeding),Mixed,5,1995,13,Not reported,13-17,23,Depressed mothers,Australia,24-hour diaries,Total cry+fuss,51.7,NA
1,1,47,Milgrom,NA,NA,5,1995,26,Not reported,13-17,6,Whole,Australia,24-hour schedule,Total cry+fuss,44.1,NA
NA,NA,47,Milgrom,NA,NA,5,1995,26,Not reported,23-27,29,Non-depressed mothers,Australia,24-hour diaries,Total cry+fuss,34.7,NA
NA,NA,47,Milgrom,NA,NA,5,1995,26,Not reported,23-27,22,Depressed mothers,Australia,24-hour diaries,Total cry+fuss,32.4,NA
1,1,47,Milgrom,NA,NA,5,1995,26,Not reported,23-27,15,Whole,Australia,24-hour diaries,Total cry+fuss,33.55,NA
1,1,48,Miller,Majority (>70% breastfeeding),Mixed,4,1993,5,Not reported,5-6,88,Whole,Canada,Baby's Day Diary,Total cry+fuss,136.8,66
NA,NA,48,Miller,Majority (>70% breastfeeding),Mixed,4,1993,5,Not reported,5-6,51,Unaffected,Canada,Baby's Day Diary,Total cry+fuss,119.4,47.1
NA,NA,48,Miller,Majority (>70% breastfeeding),Mixed,4,1993,5,Not reported,5-6,12,Responsive,Canada,Baby's Day Diary,Total cry+fuss,109.2,35.3
NA,NA,48,Miller,Majority (>70% breastfeeding),Mixed,4,1993,5,Not reported,5-6,16,Depressed,Canada,Baby's Day Diary,Total cry+fuss,163.8,69.6
NA,NA,48,Miller,Majority (>70% breastfeeding),Mixed,4,1993,5,Not reported,5-6,9,Reactive,Canada,Baby's Day Diary,Total cry+fuss,222.6,86.4
1,1,49,Miller-Loncar,Majority (>70% breastfeeding),Mixed,5,2004,6-8,Not reported,7-8,24,Comparison,USA,Infant behavior diaries,Total cry+fuss,150,89.98
NA,NA,49,Miller-Loncar,NA,NA,5,2004,6-8,Not reported,7-8,19,Colic,USA,Infant behavior diaries,Total cry+fuss,288,200.15
NA,NA,50,Mohebati,Majority (>70% breastfeeding),Mixed,4,2014,1,Not reported,1-2,204,Whole,Mexico,Adapted CPQ,Total cry+fuss,42.14,30.14
NA,NA,50,Mohebati,Majority (>70% breastfeeding),Mixed,4,2014,2,Not reported,1-2,204,Whole,Mexico,Adapted CPQ,Total cry+fuss,40.41,41.62
1,1,50,Mohebati,Majority (>70% breastfeeding),Mixed,4,2014,1-2,Not reported,1-2,204,Whole,Mexico,Adapted CPQ,Total cry+fuss,41.275,36.33623536
1,1,50,Mohebati,Majority (>70% breastfeeding),Mixed,4,2014,4,Not reported,3-4,204,Whole,Mexico,Adapted CPQ,Total cry+fuss,49.88,61.28
1,1,50,Mohebati,Mixed,Mixed,4,2014,6,Not reported,5-6,204,Whole,Mexico,Adapted CPQ,Total cry+fuss,36.07,28.43
1,1,50,Mohebati,Mixed,Mixed,4,2014,8,Not reported,7-8,204,Whole,Mexico,Adapted CPQ,Total cry+fuss,36.18,37.68
1,1,50,Mohebati,Mixed,Mixed,4,2014,12,Not reported,11-12,204,Whole,Mexico,Adapted CPQ,Total cry+fuss,31.56,26.07
1,1,50,Mohebati,NA,NA,4,2014,16,Not reported,13-17,204,Whole,Mexico,Adapted CPQ,Total cry+fuss,28.8,24.49
1,1,50,Mohebati,NA,NA,4,2014,20,Not reported,18-22,204,Whole,Mexico,Adapted CPQ,Total cry+fuss,35.75,54.4
1,1,50,Mohebati,NA,NA,4,2014,24,Not reported,23-27,204,Whole,Mexico,Adapted CPQ,Total cry+fuss,28.15,27.76
1,1,51,Ozturk-Donmez,Majority (>70% breastfeeding),Mixed,4,2019,3,Not reported,3-4,21,Control,Turkey,Infant Sleep Activity Record,Total cry+fuss,138.42,27.09
1,1,51,Ozturk-Donmez,NA,NA,4,2019,7,Not reported,7-8,21,Control,Turkey,Infant Sleep Activity Record,Total cry+fuss,190.22,24.96
1,1,51,Ozturk-Donmez,NA,NA,4,2019,11,Not reported,11-12,21,Control,Turkey,Infant Sleep Activity Record,Total cry+fuss,142.91,25.35
1,1,51,Ozturk-Donmez,NA,NA,4,2019,23,Not reported,23-27,21,Control,Turkey,Infant Sleep Activity Record,Total cry+fuss,58.33,13.24
1,NA,52,Popp,NA,NA,2,2019,26,Not reported,23-27,13,Care As Usual (CAU),Germany,Baby diary,Fussing,81.67,34.12
1,NA,52,Popp,NA,NA,2,2019,26,Not reported,23-27,13,Care As Usual (CAU),Germany,Baby diary,Crying,25,27.4
1,1,52,Popp,NA,NA,2,2019,26,Not reported,23-27,13,Care As Usual (CAU),Germany,Baby diary,Total cry+fuss,106.67,43.75996344
1,NA,52,Popp,NA,NA,2,2019,26,Not reported,23-27,13,Care As Usual (CAU),Germany,Baby diary,Unsoothable Crying,3.59,6.27
1,NA,52,Popp,NA,NA,2,2019,26,Not reported,23-27,13,Care As Usual (CAU),Germany,Baby diary,Total Distress,110.26,44.20686938
NA,NA,52,Popp,NA,NA,2,2019,26,Not reported,23-27,14,Baby Triple P (BTP),Germany,Baby diary,Fussing,80.54,50.7
NA,NA,52,Popp,NA,NA,2,2019,26,Not reported,23-27,14,Baby Triple P (BTP),Germany,Baby diary,Crying,11.55,9.72
NA,NA,52,Popp,NA,NA,2,2019,26,Not reported,23-27,14,Baby Triple P (BTP),Germany,Baby diary,Total cry+fuss,92.09,51.62333193
NA,NA,52,Popp,NA,NA,2,2019,26,Not reported,23-27,14,Baby Triple P (BTP),Germany,Baby diary,Unsoothable Crying,0,0
NA,NA,52,Popp,NA,NA,2,2019,26,Not reported,23-27,14,Baby Triple P (BTP),Germany,Baby diary,Total Distress,92.09,51.62333193
1,1,54,Shinohara,Mixed,Mixed,6,2012,4-6,Not reported,5-6,31,Whole,Japan,Barr Diary,Total cry+fuss,107,36
1,1,54,Shinohara,Mixed,Mixed,6,2012,8-10,Not reported,9-10,31,Whole,Japan,Barr Diary,Total cry+fuss,80,36
1,1,54,Shinohara,Mixed,Mixed,6,2012,14-16,Not reported,13-17,31,Whole,Japan,Barr Diary,Total cry+fuss,62,31
1,NA,55,St.James-Roberts,Majority (>70% breastfeeding),Mixed,3,2003,1,Not reported,1-2,93,Whole,UK,24-hour behavior diaries,Fussing,84.53,47.17
1,NA,55,St.James-Roberts,Majority (>70% breastfeeding),Mixed,3,2003,1,Not reported,1-2,93,Whole,UK,24-hour behavior diaries,Crying,33.01,30.14
1,1,55,St.James-Roberts,Majority (>70% breastfeeding),Mixed,3,2003,1,Not reported,1-2,93,Whole,UK,24-hour behavior diaries,Total cry+fuss,117.54,55.97703547
1,NA,55,St.James-Roberts,Majority (>70% breastfeeding),Mixed,3,2003,1,Not reported,1-2,93,Whole,UK,24-hour behavior diaries,Unsoothable Crying,9.21,23.73
1,NA,55,St.James-Roberts,Majority (>70% breastfeeding),Mixed,3,2003,1,Not reported,1-2,93,Whole,UK,24-hour behavior diaries,Total Distress,126.75,72.29
NA,NA,56,St.James-Roberts,Mixed,Mixed,6,2005,5-6,Not reported,5-6,18,High maternal state anxiety,UK,Baby Day Diary,Total Distress,180.56,110.32
NA,NA,56,St.James-Roberts,NA,NA,6,2005,12,Not reported,11-12,18,High maternal state anxiety,UK,Baby Day Diary,Total Distress,126.2,105.34
NA,NA,56,St.James-Roberts,Mixed,Mixed,6,2005,5-6,Not reported,5-6,70,Low maternal state anxiety,UK,Baby Day Diary,Total Distress,138.17,87.16
NA,NA,56,St.James-Roberts,NA,NA,6,2005,12,Not reported,11-12,66,Low maternal state anxiety,UK,Baby Day Diary,Total Distress,84.68,60.93
1,1,56,St.James-Roberts,Mixed,Mixed,6,2005,5-7,Not reported,5-6,88,Whole,UK,Baby Day Diary,Total Distress,146.8406818,92.20063229
1,1,56,St.James-Roberts,NA,NA,6,2005,13,Not reported,11-12,84,Whole,UK,Baby Day Diary,Total Distress,93.5771429,72.41066689
1,1,57,St.James-Roberts,Mixed,Mixed,3,1993,6,Not reported,5-6,16,Control,UK,Barr diary,Total cry+fuss,136,54
NA,NA,57,St.James-Roberts,NA,NA,3,1993,6,Not reported,5-6,16,Referred,UK,Barr diary,Total cry+fuss,197,65
1,1,58,St.James-Roberts,NA,NA,3,1999,1,Not reported,1-2,14,Whole,UK,Behavior diaries,Total cry+fuss,170.42,113.88
1,NA,58,St.James-Roberts,NA,NA,3,1999,1,Not reported,1-2,14,Whole,UK,Behavior diaries,Crying,50.24,45
1,1,58,St.James-Roberts,NA,NA,3,1999,6,Not reported,5-6,20,Whole,UK,Behavior diaries,Total cry+fuss,129,65.11
1,NA,58,St.James-Roberts,NA,NA,3,1999,6,Not reported,5-6,20,Whole,UK,Behavior diaries,Crying,43.25,33.89
1,1,58,St.James-Roberts,NA,NA,3,1999,12,Not reported,11-12,20,Whole,UK,Behavior diaries,Total cry+fuss,82.25,45.36
1,NA,58,St.James-Roberts,NA,NA,3,1999,12,Not reported,11-12,20,Whole,UK,Behavior diaries,Crying,22.33,19.44
1,1,59,St.James-Roberts,Mixed,Mixed,5,2001,1,Not reported,1-2,191,Control,UK,Baby Day Diary,Total cry+fuss,107,77
1,1,59,St.James-Roberts,Mixed,Mixed,5,2001,3,Not reported,3-4,181,Control,UK,Baby Day Diary,Total cry+fuss,121,72
1,1,59,St.James-Roberts,Mixed,Mixed,5,2001,6,Not reported,5-6,173,Control,UK,Baby Day Diary,Total cry+fuss,102,66
1,1,59,St.James-Roberts,Mixed,Mixed,5,2001,12,Not reported,11-12,152,Control,UK,Baby Day Diary,Total cry+fuss,60,42
1,NA,60,St.James-Roberts,Mixed,Mixed,6,2006,1,Not reported,1-2,111,Whole,UK,Behavior diaries,Fussing,82,50
1,NA,60,St.James-Roberts,Mixed,Mixed,6,2006,1,Not reported,1-2,111,Whole,UK,Behavior diaries,Crying,32,24
1,1,60,St.James-Roberts,Mixed,Mixed,6,2006,1,Not reported,1-2,111,Whole,UK,Behavior diaries,Total cry+fuss,114,55.4616985
1,NA,60,St.James-Roberts,Mixed,Mixed,6,2006,1,Not reported,1-2,111,Whole,UK,Behavior diaries,Unsoothable Crying,6,13
1,NA,60,St.James-Roberts,Mixed,Mixed,6,2006,1,Not reported,1-2,111,Whole,UK,Behavior diaries,Total Distress,120,56.96490147
1,NA,60,St.James-Roberts,Mixed,Mixed,6,2006,5,Not reported,5-6,81,Whole,UK,Behavior diaries,Fussing,88,42
1,NA,60,St.James-Roberts,Mixed,Mixed,6,2006,5,Not reported,5-6,81,Whole,UK,Behavior diaries,Crying,33,30
1,1,60,St.James-Roberts,Mixed,Mixed,6,2006,5,Not reported,5-6,81,Whole,UK,Behavior diaries,Total cry+fuss,121,51.6139516
1,NA,60,St.James-Roberts,Mixed,Mixed,6,2006,5,Not reported,5-6,81,Whole,UK,Behavior diaries,Unsoothable Crying,5,12
1,NA,60,St.James-Roberts,Mixed,Mixed,6,2006,5,Not reported,5-6,81,Whole,UK,Behavior diaries,Total Distress,126,52.9905652
1,NA,61,St.James-Roberts,Majority (>70% breastfeeding),Mixed,6,2006,1,Not reported,1-2,70,Whole,Denmark,Behavior diaries,Fussing,61,37
1,NA,61,St.James-Roberts,Majority (>70% breastfeeding),Mixed,6,2006,1,Not reported,1-2,70,Whole,Denmark,Behavior diaries,Crying,15,18
1,1,61,St.James-Roberts,Majority (>70% breastfeeding),Mixed,6,2006,1,Not reported,1-2,70,Whole,Denmark,Behavior diaries,Total cry+fuss,76,41.14608122
1,NA,61,St.James-Roberts,Majority (>70% breastfeeding),Mixed,6,2006,1,Not reported,1-2,70,Whole,Denmark,Behavior diaries,Unsoothable Crying,4,9
1,NA,61,St.James-Roberts,Majority (>70% breastfeeding),Mixed,6,2006,1,Not reported,1-2,70,Whole,Denmark,Behavior diaries,Total Distress,80,42.11887938
1,NA,61,St.James-Roberts,Mixed,Mixed,6,2006,5,Not reported,5-6,64,Whole,Denmark,Behavior diaries,Fussing,58,40
1,NA,61,St.James-Roberts,Mixed,Mixed,6,2006,5,Not reported,5-6,64,Whole,Denmark,Behavior diaries,Crying,14,16
1,1,61,St.James-Roberts,Mixed,Mixed,6,2006,5,Not reported,5-6,64,Whole,Denmark,Behavior diaries,Total cry+fuss,72,43.08131846
1,NA,61,St.James-Roberts,Mixed,Mixed,6,2006,5,Not reported,5-6,64,Whole,Denmark,Behavior diaries,Unsoothable Crying,9,21
1,NA,61,St.James-Roberts,Mixed,Mixed,6,2006,5,Not reported,5-6,64,Whole,Denmark,Behavior diaries,Total Distress,81,47.92702787
1,1,62,St.James-Roberts,Breastfeeding only,Breastfeeding only,4,1994,2,Not reported,1-2,100,Whole,India,CPQ,Total cry+fuss,13,NA
1,1,62,St.James-Roberts,Breastfeeding only,Breastfeeding only,4,1994,6,Not reported,5-6,100,Whole,India,CPQ,Total cry+fuss,32,NA
1,1,62,St.James-Roberts,Majority (>70% breastfeeding),Mixed,4,1994,12,Not reported,11-12,99,Whole,India,CPQ,Total cry+fuss,27,NA
1,1,63,St.James-Roberts,NA,NA,6,1996,2,Not reported,1-2,122,Whole,UK,Baby's Day Diary,Total cry+fuss,138,77
1,NA,63,St.James-Roberts,NA,NA,6,1996,2,Not reported,1-2,122,Whole,UK,Baby's Day Diary,Crying,61,52
1,1,63,St.James-Roberts,NA,NA,6,1996,6,Not reported,5-6,93,Whole,UK,Baby's Day Diary,Total cry+fuss,128,70
1,NA,63,St.James-Roberts,NA,NA,6,1996,6,Not reported,5-6,93,Whole,UK,Baby's Day Diary,Crying,40,40
1,1,63,St.James-Roberts,NA,NA,6,1996,12,Not reported,11-12,68,Whole,UK,Baby's Day Diary,Total cry+fuss,97,44
1,NA,63,St.James-Roberts,NA,NA,6,1996,12,Not reported,11-12,68,Whole,UK,Baby's Day Diary,Crying,29,21
1,1,63,St.James-Roberts,NA,NA,6,1996,40,Not reported,38+,73,Whole,UK,Baby's Day Diary,Total cry+fuss,50,32
1,NA,63,St.James-Roberts,NA,NA,6,1996,40,Not reported,38+,73,Whole,UK,Baby's Day Diary,Crying,11,11
NA,NA,64,Stifter,NA,NA,5,2003,6,Not reported,5-6,106,Non-Colic,USA,Cry diary,Crying,23.9,20
NA,NA,64,Stifter,NA,NA,5,2003,6,Not reported,5-6,106,Non-Colic,USA,Cry diary,Fussing,73.5,32.8
NA,NA,64,Stifter,NA,NA,5,2003,6,Not reported,5-6,106,Non-Colic,USA,Cry diary,Total cry+fuss,97.4,38.41666305
NA,NA,64,Stifter,NA,NA,5,2003,6,Not reported,5-6,22,Colic,USA,Cry diary,Crying,73.8,40.1
NA,NA,64,Stifter,NA,NA,5,2003,6,Not reported,5-6,22,Colic,USA,Cry diary,Fussing,153.5,45.9
NA,NA,64,Stifter,NA,NA,5,2003,6,Not reported,5-6,22,Colic,USA,Cry diary,Total cry+fuss,227.3,60.94932321
1,NA,64,Stifter,NA,NA,5,2003,6,Not reported,5-6,128,Whole,USA,Cry diary,Crying,32.4765625,24.52213286
1,NA,64,Stifter,NA,NA,5,2003,6,Not reported,5-6,128,Whole,USA,Cry diary,Fussing,87.25,35.32234892
1,1,64,Stifter,NA,NA,5,2003,6,Not reported,5-6,128,Whole,USA,Cry diary,Total cry+fuss,119.7265625,43.00003876
NA,NA,65,Wake,NA,NA,5,2006,9,Not reported,9-10,85,Crying problem,Australia,Barr diary,Total cry+fuss,150,78
NA,NA,65,Wake,NA,NA,5,2006,9,Not reported,9-10,361,Non-Crying problem,Australia,Barr diary,Total cry+fuss,108,60
1,1,65,Wake,NA,NA,5,2006,9,Not reported,9-10,446,Whole,Australia,Barr diary,Total cry+fuss,116.0044843,63.79612799
NA,NA,65,Wake,NA,NA,5,2006,17,Not reported,13-17,55,Crying problem,Australia,Barr diary,Total cry+fuss,120,78
NA,NA,65,Wake,NA,NA,5,2006,17,Not reported,13-17,375,Non-Crying problem,Australia,Barr diary,Total cry+fuss,72,48
1,1,65,Wake,NA,NA,5,2006,17,Not reported,13-17,695,Whole,Australia,Barr diary,Total cry+fuss,78.1395349,52.73438999
NA,NA,65,Wake,NA,NA,5,2006,52,Not reported,38+,69,Sleeping problems,Australia,Barr diary,Total cry+fuss,78,54
NA,NA,65,Wake,NA,NA,5,2006,52,Not reported,38+,357,Non-sleeping problems,Australia,Barr diary,Total cry+fuss,54,42
1,1,65,Wake,NA,NA,5,2006,52,Not reported,38+,426,Whole,Australia,Barr diary,Total cry+fuss,57.8873239,44.14470203
1,NA,66,Walker,Majority (>70% breastfeeding),Mixed,3,1994,1,Not reported,1-2,21,Whole,Australia,Barr diary,Crying,56.69,NA
1,1,66,Walker,Majority (>70% breastfeeding),Mixed,3,1994,2,Not reported,1-2,21,Whole,Australia,Barr diary,Crying,51.68,NA
1,1,66,Walker,NA,NA,3,1994,4,Not reported,3-4,21,Whole,Australia,Barr diary,Crying,49.7,NA
1,1,66,Walker,NA,NA,3,1994,6,Not reported,5-6,21,Whole,Australia,Barr diary,Crying,32.86,NA
1,1,66,Walker,NA,NA,3,1994,8,Not reported,7-8,21,Whole,Australia,Barr diary,Crying,33.35,NA
1,NA,66,Walker ,Majority (>70% breastfeeding),Mixed,3,1994,1,Not reported,1-2,21,Whole,Australia,Barr diary,Fussing,57,NA
1,NA,66,Walker ,Majority (>70% breastfeeding),Mixed,3,1994,1,Not reported,1-2,21,Whole,Australia,Barr diary,Total cry+fuss,113.69,NA
1,NA,66,Walker ,NA,NA,3,1994,8,Not reported,7-8,21,Whole,Australia,Barr diary,Fussing,35,NA
1,NA,66,Walker ,NA,NA,3,1994,8,Not reported,7-8,21,Whole,Australia,Barr diary,Total cry+fuss,68.35,NA
1,1,67,de Weerth,Mixed,Mixed,5,2007,6,0.4,5-6,102,Whole,the Netherlands,Baby Day Diary,Total cry+fuss,150.4,66.3
1,1,69,Wurmser,NA,NA,5,2006,6,Not reported,5-6,64,Whole,Germany,German adaptation of Barr & Hunziker diary,Total cry+fuss,145.6,84.4
1,NA,69,Wurmser,NA,NA,5,2006,6,Not reported,5-6,64,Whole,Germany,German adaptation of Barr & Hunziker diary,Unsoothable Crying,10.5,26
1,NA,69,Wurmser,NA,NA,5,2006,6,Not reported,5-6,64,Whole,Germany,German adaptation of Barr & Hunziker diary,Total Distress,156.1,88.3139853
1,NA,69,Wurmser,NA,NA,5,2006,6,Not reported,5-6,64,Whole,Germany,German adaptation of Barr & Hunziker diary,Crying,43.3,49.9
1,1,69,Wurmser,NA,NA,5,2006,13,Not reported,13-17,63,Whole,Germany,German adaptation of Barr & Hunziker diary,Total cry+fuss,107.9,58.2
1,NA,69,Wurmser,NA,NA,5,2006,13,Not reported,13-17,63,Whole,Germany,German adaptation of Barr & Hunziker diary,Unsoothable Crying,6.5,15
1,NA,69,Wurmser,NA,NA,5,2006,13,Not reported,13-17,63,Whole,Germany,German adaptation of Barr & Hunziker diary,Total Distress,114.4,60.10191345
1,NA,69,Wurmser,NA,NA,5,2006,13,Not reported,13-17,63,Whole,Germany,German adaptation of Barr & Hunziker diary,Crying,28.7,28.1
1,1,69,Wurmser,NA,NA,5,2006,26,Not reported,23-27,63,Whole,Germany,German adaptation of Barr & Hunziker diary,Total cry+fuss,103.4,62
1,NA,69,Wurmser,NA,NA,5,2006,26,Not reported,23-27,63,Whole,Germany,German adaptation of Barr & Hunziker diary,Unsoothable Crying,2.3,5.1
1,NA,69,Wurmser,NA,NA,5,2006,26,Not reported,23-27,63,Whole,Germany,German adaptation of Barr & Hunziker diary,Total Distress,105.7,62.20940443
1,NA,69,Wurmser,NA,NA,5,2006,26,Not reported,23-27,63,Whole,Germany,German adaptation of Barr & Hunziker diary,Crying,23.1,24.9
