What to do with groups? ,Include,All,Study ID,Author (s),"Breastfeeding 5 groups: 1= majority (>70% breastfeeding) 2 = majority bottlefeeding; 3 = Breastfeeding only; 4= Bottle only; 5= Mixed, NA= no data ","Breastfeeding 3 groups: 1 = mixed, 2= breastfeeding only; 3= bottle only ",Quality Rating,Year,Age of infants ,SD infant ages ,Age group,Age group2,Number of infants ,Group Description,Country,Method,Fuss or Cry ,Mean minutes ,SD,,,,,CP ,
,1,,1,Alvarez,1,1,7,2004,3,1.2 days,3-4,3-4,118,Whole,Denmark,24-hour behavior diary,Fussing,72,44,,Table 4,,,,
,1,,1,Alvarez,1,1,7,2004,3,1.2 days,3-4,3-4,118,Whole,Denmark,24-hour behavior diary,Crying.,18,21,,,,,,
,1,1,1,Alvarez,1,1,7,2004,3,1.2 days,3-4,3-4,118,Whole,Denmark,24-hour behavior diary,Total cry+fuss,90,58,,,,,,
,1,,1,Alvarez,1,1,7,2004,6,1.3 days,5-6,5-6,111,Whole,Denmark,24-hour behavior diary,Fussing,63,55,,,,,,
,1,,1,Alvarez,1,1,7,2004,6,1.3 days,5-6,5-6,111,Whole,Denmark,24-hour behavior diary,Crying.,16,22,,,,,,
,1,1,1,Alvarez,1,1,7,2004,6,1.3 days,5-6,5-6,111,Whole,Denmark,24-hour behavior diary,Total cry+fuss,79,67,,,,,,
,1,,1,Alvarez,1,1,7,2004,12,1.6 days,11-12,11-12,110,Whole,Denmark,24-hour behavior diary,Fussing,38,35,,,,,,
,1,,1,Alvarez,1,1,7,2004,12,1.6 days,11-12,11-12,110,Whole,Denmark,24-hour behavior diary,Crying.,9,15,,,,,,
,1,1,1,Alvarez,1,1,7,2004,12,1.6 days,11-12,11-12,110,Whole,Denmark,24-hour behavior diary,Total cry+fuss,48,44,,,,,,
Combine into 1 group ,,,2,Aloisio,1,1,6,2018,1.5,1.9 days,1-2,1-2,73,Placebo,Italy,Baby Day Diary,Crying + inconsolable crying,25.5,28.8,,Table 3,,,,
,,,2,Aloisio ,1,1,6,2018,1.5,1.9 days,1-2,1-2,82,Probiotic,Italy,Baby Day Diary,Crying + inconsolable crying,28.8,37.7,,,,,,
,1,1,2,Aloisio ,1,1,6,2018,1.5,1.9 days,1-2,1-2,155,Whole,Italy,Baby Day Diary,Crying + inconsolable crying,27.15,33.54646032,,,,,,
,1,1,3,Anzman-Frasca,1,1,3,2013,3,Not reported,3-4,3-4,49,Control,USA,Adapted Barr diary,Total cry+fuss,88.92,60.59,,contacted author,,,,
,1,1,3,Anzman-Frasca,5,1,3,2013,16,Not reported,15-16,13-17,55,Control,USA,Adapted Barr diary,Total cry+fuss,50.41,32.02,,,,,,
,1,,4,Atella,1,1,5,2003,6,Not reported,5-6,5-6,106,Whole,USA,Baby Day Diary,Crying.,28,33,,,,,,
,1,,4,Atella,1,1,5,2003,6,Not reported,5-6,5-6,106,Whole,USA,Baby Day Diary,Fussing,96,53,,,,,,
,1,1,4,Atella,1,1,5,2003,6,Not reported,5-6,5-6,106,Whole,USA,Baby Day Diary,Total cry+fuss,124,62.43396512,,,,,,
,1,1,5,Baildam,2,1,6,1995,6,Not reported,5-6,5-6,157,Whole,UK,24-hour diary,Crying only - excluding fussing ,42.7,46.7,,Table 1,,,,
,1,1,5,Baildam,2,1,6,1995,13,Not reported,13-14,13-17,157,Whole,UK,24-hour diary,Crying only - excluding fussing ,29.3,43.3,,,,,,
,1,1,5,Baildam,2,1,6,1995,26,Not reported,25-26,23-27,146,Whole,UK,24-hour diary,Crying only - excluding fussing ,21.3,27.8,,,,,,
,1,1,5,Baildam,2,3,6,1995,52,Not reported,51-52,38+,149,Whole,UK,24-hour diary,Crying only - excluding fussing ,13.3,19.7,,,,,,
combine ,,,6,Barr,3,2,8,1989,6,5.5 - 7 weeks,5-6,5-6,283,Breastfed,Canada,24-hour behavior diary,Total cry+fuss,92.9,61.1,,Table 1,,,,
,,,6,Barr,4,3,8,1989,6,5.5 - 7 weeks,5-6,5-6,91,Bottlefed,Canada,24-hour behavior diary,Total cry+fuss,88.7,65.7,,,,,,
,1,1,6,Barr,NA,NA,8,1989,6,5.5 - 7 weeks,5-6,5-6,374,Whole,Canada,24-hour behavior diary,Total cry+fuss,91.8780749,62.24408509,,,,,,
,,,7,Barr,,,EXCLUDE,1992,4,plus/minus 6.3 days,3-4,,24,Non-Wessel Colic,Canada,Baby Day Diary,Total cry+fuss,102.6,42,,,"Bar1, 1.70968","Bar4, 2.40553",,
,,,7,Barr,,,EXCLUDE,1992,4,plus/minus 6.5 days,3-4,,36,Control,Canada,Baby Day Diary,Total cry+fuss,102,54,,Figure 2,"Bar0, 1.70507","Bar3, 2.59908",,
,,,7,Barr,,,EXCLUDE,1992,4,plus/minus 6.3 days,3-4,,13,Colic,Canada,Baby Day Diary,Total cry+fuss,245,73.2,,,"Bar2, 4.08295","Bar5, 5.37327",,
,,,8,Barr,,,EXCLUDE,2005,7,1.5,7-8,,44,Non-Colic,Canada,Baby Day Diary,Distress,106.7,34.9,,,"Bar1, 106.73077","Bar5, 141.60839",108 reported in text,
,,,8,Barr,,,EXCLUDE,2005,7,1.5,7-8,,44,Non-Colic,Canada,Baby Day Diary,Fussing,80.4,30.6,,Figure 2,"Bar1, 80.41958","Bar5, 111.01399",,
,,,8,Barr,,,EXCLUDE,2005,7,1.5,7-8,,44,Non-Colic,Canada,Baby Day Diary,Crying,24.4,20.2,,Figure 3,"Bar1, 24.43380","Bar5, 44.68641",,
,,,8,Barr,,,EXCLUDE,2005,7,1.5,7-8,,44,Non-Colic,Canada,Baby Day Diary,Unsoothable Cry,3.58,6.8,,Figure 4,"Bar1, 3.58474","Bar5, 10.47028",,
,,,8,Barr,,,EXCLUDE,2005,20,2,19-20,,44,Non-Colic,Canada,Baby Day Diary,Total distress,63.1,37.3,,,"Bar3, 63.19930","Bar7, 100.43706",66 reported in text,
,,,8,Barr,,,EXCLUDE,2005,20,2,19-20,,44,Non-Colic,Canada,Baby Day Diary,Fussing,54.6,34.5,,,"Bar3, 54.63287","Bar7, 89.16084",,
,,,8,Barr,,,EXCLUDE,2005,20,2,19-20,,44,Non-Colic,Canada,Baby Day Diary,Crying,7.5,7.3,,,"Bar3, 7.57840","Bar7, 14.89547",,
,,,8,Barr,,,EXCLUDE,2005,20,2,19-20,,44,Non-Colic,Canada,Baby Day Diary,Unsoothable Cry,6.03,6.37,,,"Bar3, 0.60337","Bar6, 12.42236",,
,,,8,Barr,,,EXCLUDE,2005,7,1.3,7-8,,33,Colic,Canada,Baby Day Diary,Total distress,226,60.8,,,"Bar0, 226.04895","Bar4, 286.88811",228 reported in text,
,,,8,Barr,,,EXCLUDE,2005,7,1.3,7-8,,33,Colic,Canada,Baby Day Diary,Fussing,145.5,70.2,,,"Bar0, 145.54196","Bar4, 215.47203",,
,,,8,Barr,,,EXCLUDE,2005,7,1.3,7-8,,33,Colic,Canada,Baby Day Diary,Crying,63.5,53.8,,,"Bar0, 63.50174","Bar4, 117.33449",,
,,,8,Barr,,,EXCLUDE,2005,7,1.3,7-8,,33,Colic,Canada,Baby Day Diary,Unsoothable Cry,18.2,21.2,,,"Bar0, 18.24312","Bar4, 39.46761",,
,,,8,Barr,,,EXCLUDE,2005,21,1.3,21-22,,33,Colic,Canada,Baby Day Diary,Total distress,108.8,54.5,,,"Bar2, 108.82867","Bar6, 163.37413",,
,,,8,Barr,,,EXCLUDE,2005,21,1.3,21-22,,33,Colic,Canada,Baby Day Diary,Fussing,81.9,46.5,,,"Bar2, 81.94930","Bar6, 128.49650",,
,,,8,Barr,,,EXCLUDE,2005,21,1.3,21-22,,33,Colic,Canada,Baby Day Diary,Crying,23.6,25.1,,,"Bar2, 23.64983","Bar6, 48.73693",,
,,,8,Barr,,,EXCLUDE,2005,21,1.3,21-22,,33,Colic,Canada,Baby Day Diary,Unsoothable Cry,3.3,9.1,,,"Bar2, 3.37178","Bar6, 12.42236",,
,1,1,9,Bilgin,2,1,5,2020,13,Not reported,13-14,13-17,105,Full-term,UK,CPQ,Total cry+fuss,79.84,70.52,,check email from authors ,,,,
,1,1,9,Bilgin,NA,NA,5,2020,26,Not reported,25-26,23-27,105,Full-term,UK,CPQ,Total cry+fuss,63.3,65.38,,check email from authors ,,,,
,1,,10,Blum,NA,NA,4,2002,5,Not reported,5-6,5-6,60,Whole,USA,Baby day Diary,Total cry+fuss,140.9,75.1,,#Breakdown taken from Wolke. In the paper it is reported 118.0 min on average for all ages.,,,,
,1,1,10,Blum,NA,NA,4,2002,6,Not reported,5-6,5-6,59,Whole,USA,Baby day Diary,Total cry+fuss,127.1,69.9,,,,,,
,1,1,10,Blum,NA,NA,4,2002,8,Not reported,7-8,7-8,58,Whole,USA,Baby day Diary,Total cry+fuss,97.9,46.9,,,,,,
,1,,11,Bolten,NA,NA,3,2012,6,Not reported,5-6,5-6,120,Whole,Switzerland,German adaptation of Barr's diary,Fussing,107.5,63.1,,,,,,
,1,,11,Bolten,NA,NA,3,2012,6,Not reported,5-6,5-6,120,Whole,Switzerland,German adaptation of Barr's diary,Crying.,33.38,31.54,,,,,,
,1,1,11,Bolten,NA,NA,3,2012,6,Not reported,5-6,5-6,120,Whole,Switzerland,German adaptation of Barr's diary,Total cry+fuss,140.88,70.54347312,,,,,,
,1,,11,Bolten,NA,NA,3,2012,6,Not reported,5-6,5-6,120,Whole,Switzerland,German adaptation of Barr's diary,Unsoothable Crying,3.38,8.12,,,,,,
,1,,11,Bolten,NA,NA,3,2012,6,Not reported,5-6,5-6,120,Whole,Switzerland,German adaptation of Barr's diary,Total Distress,144.26,71.009267,,,,,,
,1,1,12,Bonichini,NA,NA,4,2008,2,Not reported,1-2,1-2,70,Whole,Italy,Baby day Diary,Total cry+fuss,147.64,90.16,,"Text ""Differences in Infant Crying By Infant Age""",,,,
,1,1,12,Bonichini,NA,NA,4,2008,5,Not reported,5-6,5-6,70,Whole,Italy,Baby day Diary,Total cry+fuss,150.56,100.11,,,,,,
,1,1,12,Bonichini,NA,NA,4,2008,8,Not reported,7-8,7-8,70,Whole,Italy,Baby day Diary,Total cry+fuss,118.5,78.5,,,,,,
,,,13,Canivet,,,EXCLUDE ,2002,,4.5 - 7,,,116,Control,Sweden,Barr diary (slightly modified),Fussing,48,27,,Table 2,,,,
,,,13,Canivet,,,EXCLUDE ,2002,,4.5 - 8,,,116,Control,Sweden,Barr diary (slightly modified),Crying,18,19,,,,,,
,,,13,Canivet,,,EXCLUDE ,2002,,4.5 - 9,,,116,Control,Sweden,Barr diary (slightly modified),Unsoothable Crying,3,8,,,,,,
,,,13,Canivet,,,EXCLUDE ,2002,,4.5 - 10,,,116,Control,Sweden,Barr diary (slightly modified),Total Distress,69,38,,,,,,
,1,1,14,Clifford,5,1,6,2002,6,Not reported,5-6,5-6,431,Whole,Canada,Baby day Diary,Total cry+fuss,111.5,65.85,,"Figure 2, divided by 7",,,,
,1,1,15,Clifford,NA,NA,5,2002,13,Not reported,13-14,13-17,320,Whole,Canada,Baby day Diary,Total cry+fuss,40.08,57.21,,"Figure 2, divided by 7",,,,
,,,16,Cutrona,,,EXCLUDE ,1986,13,Not reported,13-14,13-17,55,Whole,USA,Records,Crying,35.42,5.6,,Table 1,,,,
,1,,17,Darlington,5,1,2,2006,8,Not reported,7-8,7-8,75,Whole,UK,Baby's day Record,Fussing,74,59,,#Wolke divides into 24 (breastfed) + 51 (bottlefed) infants and reports 105 (47.7) + 58 (45.8) min,,,,
,1,,17,Darlington,5,1,2,2006,8,Not reported,7-8,7-8,75,Whole,UK,Baby's day Record,Crying.,36,36,,,,,,
,1,1,17,Darlington,5,1,2,2006,8,Not reported,7-8,7-8,75,Whole,UK,Baby's day Record,Total cry+fuss,110,69.11584478,,,,,,
,1,1,18,DeLeon,5,1,3,2007,36,Not reported,35-36,33-37,41,Whole,USA,Infant Care Diary (ICD),Total cry+fuss,63.6,57.6,,Table 2,,,,
,1,,19,Fujiwara,NA,NA,6,2011,5,Not reported,5-6,5-6,1065,Whole,Canada,Baby Day Diary,Fussing,102.5,56.1,,Table II,,,,
,1,,19,Fujiwara,NA,NA,6,2011,5,Not reported,5-6,5-6,1065,Whole,Canada,Baby Day Diary,Crying.,51.4,37,,,,,,
,1,1,19,Fujiwara,NA,NA,6,2011,5,Not reported,5-6,5-6,1065,Whole,Canada,Baby Day Diary,Total cry+fuss,153.9,67.20275292,,,,,,
,1,,19,Fujiwara,NA,NA,6,2011,5,Not reported,5-6,5-6,1065,Whole,Canada,Baby Day Diary,Unsoothable Crying,9.5,17.2,,,,,,
,1,,19,Fujiwara,NA,NA,6,2011,5,Not reported,5-6,5-6,1065,Whole,Canada,Baby Day Diary,Total Distress,163.4,75,,,,,,
,1,,20,Fujiwara,NA,NA,6,2011,5,Not reported,5-6,5-6,1857,Whole,USA,Baby Day Diary,Fussing,100.4,51.2,,Table II,,,,
,1,,20,Fujiwara,NA,NA,6,2011,5,Not reported,5-6,5-6,1857,Whole,USA,Baby Day Diary,Crying.,42.5,32.6,,,,,,
,1,1,20,Fujiwara,NA,NA,6,2011,5,Not reported,5-6,5-6,1857,Whole,USA,Baby Day Diary,Total cry+fuss,142.9,60.69761116,,,,,,
,1,,20,Fujiwara,NA,NA,6,2011,5,Not reported,5-6,5-6,1857,Whole,USA,Baby Day Diary,Unsoothable Crying,9.1,17.2,,,,,,
,1,,20,Fujiwara,NA,NA,6,2011,5,Not reported,5-6,5-6,1857,Whole,USA,Baby Day Diary,Total Distress,152,71.8,,,,,,
,1,,21,Geeraerts,NA,NA,5,2020,24,Not reported,23-24,23-27,132,Whole,USA,24-hr diary (Barr),Fussing,55.2,36,,Table 1,3.84%,2.52 %,,
,1,,21,Geeraerts,NA,NA,5,2020,24,Not reported,23-24,23-27,132,Whole,USA,24-hr diary (Barr),Crying.,17.8,17.1,,,1.24%,1.19%,,
,1,1,21,Geeraerts,NA,NA,5,2020,24,Not reported,23-24,23-27,132,Whole,USA,24-hr diary (Barr),Total cry+fuss,73,39.85486169,,,,,,
,1,1,22,Harrison,NA,NA,3,2004,6,Not reported,5-6,5-6,56,Whole,UK,Barr Baby day Diary,Crying,40,39,,,,,,
,1,1,22,Harrison,NA,NA,3,2004,9,Not reported,9-10,9-10,56,Whole,UK,Barr Baby day Diary,Crying,34,41,,,,,,
,1,1,22,Harrison,NA,NA,3,2004,12,Not reported,11-12,11-12,56,Whole,UK,Barr Baby day Diary,Crying,20,24,,,,,,
,1,,23,Hayes,1,1,4,2011,6,Not reported,5-6,5-6,120,Whole,USA,Baby Day Diary,Crying.,28.68,NA,,Figure 1,"Bar0, 28.68526",,,
,1,,23,Hayes,1,1,4,2011,6,Not reported,5-6,5-6,120,Whole,USA,Baby Day Diary,Fussing,95.02,NA,,,"Bar1, 95.01992",,,
,1,1,23,Hayes,1,1,4,2011,6,Not reported,5-6,5-6,120,Whole,USA,Baby Day Diary,Total cry+fuss,123.7,NA,,,,,,
,1,1,24,Hechler,1,1,3,2018,2,1.6 days,1-2,1-2,68,Whole,the Netherlands,Baby Day Diary,Total Distress,131.85,64.83,,Table 2,,,,
,1,1,24,Hechler,1,1,3,2018,6,4.79 days,5-6,5-6,69,Whole,the Netherlands,Baby Day Diary,Total Distress,134.56,62.88,,,,,,
,1,1,24,Hechler,1,1,3,2018,12,2.31 days,11-12,11-12,69,Whole,the Netherlands,Baby Day Diary,Total Distress,89.23,48.21,,,,,,
,,,25,Hill,,,EXCLUDE ,1992,7,5-8 weeks,7-8,,30,Control,Australia,Barr Chart,Total Distress,103,58.1,,Written in the text,SD: https://smcgrath.shinyapps.io/estmeansd/,,Used median values from table,
,1,1,26,Hiscock,5,1,6,2014,16,Not reported,15-16,13-17,259,Control,Australia,Infant behavior diary,Total cry+fuss,90,54,,Table 3,,,,
,1,1,26,Hiscock,5,1,6,2014,24,Not reported,23-24,23-27,215,Control,Australia,Infant behavior diary,Total cry+fuss,78,54,,,,,,
,1,,27,Hunziker,3,2,6,1986,3,Not reported,3-4,3-4,50,Control,Canada,24-hour diaries,Total cry+fuss,108,18,,Fig 1,"Bar0, 1.80063","Bar5, 2.15950",,
,1,1,27,Hunziker,5,1,6,1986,4,Not reported,3-4,3-4,50,Control,Canada,24-hour diaries,Total cry+fuss,115.8,24,,,"Bar1, 1.92655","Bar6, 2.32634",,
,1,1,27,Hunziker,5,1,6,1986,6,Not reported,5-6,5-6,50,Control,Canada,24-hour diaries,Total cry+fuss,137.4,36,,,"Bar2, 2.29171","Bar7, 2.83631",,
,1,1,27,Hunziker,5,1,6,1986,8,Not reported,7-8,7-8,50,Control,Canada,24-hour diaries,Total cry+fuss,115.8,24,,,"Bar3, 1.93284","Bar8, 2.37356",,
,1,1,27,Hunziker,5,1,6,1986,12,Not reported,11-12,11-12,50,Control,Canada,24-hour diaries,Total cry+fuss,78.6,18,,,"Bar4, 1.30640","Bar9, 1.62434",,
,1,1,28,Jordan,NA,NA,3,2020,4,Not reported,3-4,3-4,10,Whole,Canada,Baby Day Diary,Total cry+fuss,62.3,30.2,,Table 4,"SDs sent by email, weekly mean",,,
,1,1,28,Jordan,NA,NA,3,2020,6,Not reported,5-6,5-6,10,Whole,Canada,Baby Day Diary,Total cry+fuss,66.4,31.3,,,,,,
,1,1,28,Jordan,NA,NA,3,2020,8,Not reported,7-8,7-8,10,Whole,Canada,Baby Day Diary,Total cry+fuss,58.5,36,,,,,,
,1,1,28,Jordan,NA,NA,3,2020,12,Not reported,11-12,11-12,10,Whole,Canada,Baby Day Diary,Total cry+fuss,50.4,35.6,,,,,,
,1,,29,Keller,NA,NA,2,1996,13-15,Not reported,13-14,13-17,13,Sample 2,Germany,Diaries,Crying,40.5,39.74945573,,Table 4 for each infant,,,,
,1,,29,Keller,NA,NA,2,1996,13-15,Not reported,13-14,13-17,13,Sample 2,Germany,Diaries,Fussing,140.3,112.5756,,Figure 5 for each infant,,,,
,1,1,29,Keller,NA,NA,2,1996,13-16,Not reported,13-14,13-17,13,Sample 3,Germany,Diaries,Total cry+fuss,180.8,119.3871222,,,,,,
,1,1,30,Keller,NA,NA,3,1998,13,Not reported,11-12,11-12,62,Whole,Germany,Diaries,Crying,84.6,54,,"""Stability of the Cry durations"" section",,,,
,1,1,30,Keller,NA,NA,1,1998,52,Not reported,51-52,38+,51,Whole,Germany,Diaries,Crying,58.8,42.6,,,,,,
,1,1,31,Killerby,5,1,2,1992,6-8,Not reported,7-8,7-8,14,Normative,UK,Baby Day Record,Total cry+fuss,102.1,50.4,,Table 1,,,,
,,,32,Kirjavainen,,,EXCLUDE ,2001,5,2.6-5.9 weeks,5-6,,16,Control,Finland,Daily diary,Crying,36,27,,Written in the text,"SD range/4, 1.8/4=0.45 hr",,,
,,,33,Kivijarvi,NA,NA,2,2004,13,Not reported,13-14,13-17,19,Boys,Finland,BDR,Crying.,24,21.61272773,,,Min + SD reported for each time of day. Need to estimate mean SD,,,
,,,33,Kivijarvi,NA,NA,2,2004,13,Not reported,13-14,13-17,19,Boys,Finland,BDR,Fussing,76,52.38692585,,,,,,
,,,33,Kivijarvi,NA,NA,2,2004,13,Not reported,13-14,13-17,37,Girls,Finland,BDR,Crying.,30.5,26.50509385,,,,,,
,,,33,Kivijarvi,NA,NA,2,2004,13,Not reported,13-14,13-17,37,Girls,Finland,BDR,Fussing,43,28.95030224,,,,,,
use the whole ,1,1,33,Kivijarvi,NA,NA,2,2004,13,Not reported,13-14,13-17,56,Whole,Finland,BDR,Total cry+fuss,82.4910714,45.79949054,,,,,,
,1,,33,Kivijarvi,NA,NA,2,2004,13,Not reported,13-14,13-17,56,Whole,Finland,BDR,Crying.,28.2946429,24.98099277,,,,,,
,,,33,Kivijarvi,NA,NA,2,2004,52,Not reported,51-52,38+,19,Boys,Finland,BDR,Crying.,5.5,8.71894489,,,,,,
,,,33,Kivijarvi,NA,NA,2,2004,52,Not reported,51-52,38+,19,Boys,Finland,BDR,Fussing,41.5,32.16302225,,,,,,
,,,33,Kivijarvi,NA,NA,2,2004,52,Not reported,51-52,38+,37,Girls,Finland,BDR,Crying.,15,14.25692814,,,,,,
,,,33,Kivijarvi,NA,NA,2,2004,52,Not reported,51-52,38+,37,Girls,Finland,BDR,Fussing,35,25.38129232,,,,,,
use the whole ,1,1,33,Kivijarvi,NA,NA,2,2004,52,Not reported,51-52,38+,56,Whole,Finland,BDR,Total cry+fuss,48.9821429,30.58005886,,,,,,
,1,,33,Kivijarvi,NA,NA,2,2004,52,Not reported,51-52,38+,56,Whole,Finland,BDR,Crying.,11.7767857,12.68253392,,,,,,
,1,1,34,Korja,NA,NA,3,2008,20,minus/plus 1 week,19-20,18-22,36,Full-term controls,Finland,Baby Day Diary,Total cry+fuss,64.9,40.3,,Table 2,,,,
,,1,35,Kramer,3,2,4,2001,4,Not reported,3-4,3-4,183,Whole,Canada,Behavior diary,Total Distress,149.8,73.5,,Taken from Wolke: average from both experimental and control group. Table 3,,,,
,,1,35,Kramer,5,1,4,2001,6,Not reported,5-6,5-6,156,Whole,Canada,Behavior diary,Total Distress,131.6,72.5,,,,,,
,,1,35,Kramer,5,1,4,2001,9,Not reported,9-10,9-10,148,Whole,Canada,Behavior diary,Total Distress,107.6,64.6,,,,,,
,1,,35,Kramer,3,2,4,2001,4,Not reported,3-4,3-4,91,Control,Canada,Behavior diary,Total cry+fuss,151,NA,,,,,,
,1,,35,Kramer,3,2,4,2001,4,Not reported,3-4,3-4,91,Control,Canada,Behavior diary,Unsoothable Crying,9.1,NA,,,,,,
,1,,35,Kramer,3,2,4,2001,4,Not reported,3-4,3-4,91,Control,Canada,Behavior diary,Total Distress,160.1,NA,,,,,,
,1,,35,Kramer,5,1,4,2001,6,Not reported,5-6,5-6,78,Control,Canada,Behavior diary,Total cry+fuss,131,NA,,,,,,
,1,,35,Kramer,5,1,4,2001,6,Not reported,5-6,5-6,78,Control,Canada,Behavior diary,Unsoothable Crying,5.2,NA,,,,,,
,1,,35,Kramer,5,1,4,2001,6,Not reported,5-6,5-6,78,Control,Canada,Behavior diary,Total Distress,136.2,NA,,,,,,
,1,,35,Kramer,5,1,4,2001,9,Not reported,9-10,9-10,74,Control,Canada,Behavior diary,Total cry+fuss,104,NA,,,,,,
,1,,35,Kramer,5,1,4,2001,9,Not reported,9-10,9-10,74,Control,Canada,Behavior diary,Unsoothable Crying,6.1,NA,,,,,,
,1,,35,Kramer,5,1,4,2001,9,Not reported,9-10,9-10,74,Control,Canada,Behavior diary,Total Distress,110.1,NA,,,,,,
,1,,36,Lam,NA,NA,5,2010,5,Not reported,5-6,5-6,33,Whole,Canada,Paper diary,Crying.,30,24,,,,,,
,1,,36,Lam,NA,NA,5,2010,5,Not reported,5-6,5-6,33,Whole,Canada,Paper diary,Fussing,90,48,,,,,,
,1,1,36,Lam,NA,NA,5,2010,5,Not reported,5-6,5-6,33,Whole,Canada,Paper diary,Total cry+fuss,120,53.66563146,,,,,,
,1,,36,Lam,NA,NA,5,2010,5,Not reported,5-6,5-6,33,Whole,Canada,Paper diary,Inconsolable Crying,6,12,,,,,,
,1,,36,Lam,NA,NA,5,2010,5,Not reported,5-6,5-6,33,Whole,Canada,Paper diary,Total Distress,126,54.99090834,,,,,,
,1,1,37,Lee,NA,NA,2,1994,4,Not reported,3-4,3-4,32,Whole,Korea,Diary (similar to Barr),Total cry+fuss,94.2,79.1,,Table 1,,,,
,1,1,37,Lee,NA,NA,2,1994,8,Not reported,7-8,7-8,32,Whole,Korea,Diary (similar to Barr),Total cry+fuss,64.9,56.4,,,,,,
,1,1,37,Lee,NA,NA,2,1994,12,Not reported,11-12,11-12,32,Whole,Korea,Diary (similar to Barr),Total cry+fuss,57.5,41.3,,,,,,
,1,1,37,Lee,NA,NA,2,1994,16,Not reported,15-16,13-17,32,Whole,Korea,Diary (similar to Barr),Total cry+fuss,60.8,63.4,,,,,,
,1,1,37,Lee,NA,NA,2,1994,24,Not reported,23-24,23-27,32,Whole,Korea,Diary (similar to Barr),Total cry+fuss,39.4,29.6,,,,,,
,1,1,38,Lee,NA,NA,3,2000,2,Not reported,1-2,1-2,143,Home infants,Korea,Diary (Hunziker & Barr 1986),Total cry+fuss,33.2,NA,,Figure 2,"Bar0, 33.20513",,,
,,,38,Lee,NA,NA,3,2000,3,Not reported,3-4,3-4,143,Home infants,Korea,Diary (Hunziker & Barr 1986),Total cry+fuss,42.1,NA,,,"Bar1, 42.17949",,,
,,,38,Lee,NA,NA,3,2000,4,Not reported,3-4,3-4,143,Home infants,Korea,Diary (Hunziker & Barr 1986),Total cry+fuss,43.9,NA,,,"Bar2, 43.97436",,,
,1,1,38,Lee,NA,NA,3,2000,3-4,Not reported,3-4,3-4,143,Home infants,Korea,Diary (Hunziker & Barr 1986),Total cry+fuss,43,NA,,,,,,
,,,38,Lee,NA,NA,3,2000,5,Not reported,5-6,5-6,143,Home infants,Korea,Diary (Hunziker & Barr 1986),Total cry+fuss,64.6,NA,,,"Bar3, 64.61538",,,
,,,38,Lee,NA,NA,3,2000,6,Not reported,5-6,5-6,143,Home infants,Korea,Diary (Hunziker & Barr 1986),Total cry+fuss,59.6,NA,,,"Bar4, 59.67949",,,
,1,1,38,Lee,NA,NA,3,2000,5-6,Not reported,5-6,5-6,143,Home infants,Korea,Diary (Hunziker & Barr 1986),Total cry+fuss,62.1,NA,,,,,,
,,,38,Lee,NA,NA,3,2000,7,Not reported,7-8,7-8,143,Home infants,Korea,Diary (Hunziker & Barr 1986),Total cry+fuss,28.2,NA,,,"Bar5, 28.26923",,,
,,,38,Lee,NA,NA,3,2000,8,Not reported,7-8,7-8,143,Home infants,Korea,Diary (Hunziker & Barr 1986),Total cry+fuss,34.1,NA,,,"Bar6, 34.10256",,,
,1,1,38,Lee,NA,NA,3,2000,7-8,Not reported,7-8,7-8,143,Home infants,Korea,Diary (Hunziker & Barr 1986),Total cry+fuss,31.15,NA,,,,,,
,,,38,Lee,NA,NA,3,2000,9,Not reported,9-10,9-10,143,Home infants,Korea,Diary (Hunziker & Barr 1986),Total cry+fuss,40.8,NA,,,"Bar7, 40.83333",,,
,,,38,Lee,NA,NA,3,2000,10,Not reported,9-10,9-10,143,Home infants,Korea,Diary (Hunziker & Barr 1986),Total cry+fuss,68.2,NA,,,"Bar8, 68.20513",,,
,1,1,38,Lee,NA,NA,3,2000,9-10,Not reported,9-10,9-10,143,Home infants,Korea,Diary (Hunziker & Barr 1986),Total cry+fuss,54.5,NA,,,,,,
,,,38,Lee,NA,NA,3,2000,11,Not reported,11-12,11-12,143,Home infants,Korea,Diary (Hunziker & Barr 1986),Total cry+fuss,39.03,NA,,,"Bar9, 39.03846",,,
,,,38,Lee,NA,NA,3,2000,12,Not reported,11-12,11-12,143,Home infants,Korea,Diary (Hunziker & Barr 1986),Total cry+fuss,36.5,NA,,,"Bar10, 36.57051",,,
,1,1,38,Lee,NA,NA,3,2000,11-12,Not reported,11-12,11-12,143,Home infants,Korea,Diary (Hunziker & Barr 1986),Total cry+fuss,37.765,NA,,,,,,
,,,38,Lee,NA,NA,3,2000,13,Not reported,13-14,13-17,143,Home infants,Korea,Diary (Hunziker & Barr 1986),Total cry+fuss,44.8,NA,,,"Bar11, 44.87179",,,
,,,38,Lee,NA,NA,3,2000,14,Not reported,13-14,13-17,143,Home infants,Korea,Diary (Hunziker & Barr 1986),Total cry+fuss,51.8,NA,,,"Bar12, 51.82692",,,
,,,38,Lee,NA,NA,3,2000,15,Not reported,15-16,13-17,143,Home infants,Korea,Diary (Hunziker & Barr 1986),Total cry+fuss,32.9,NA,,,"Bar13, 32.98077",,,
,,,38,Lee,NA,NA,3,2000,16,Not reported,15-16,13-17,143,Home infants,Korea,Diary (Hunziker & Barr 1986),Total cry+fuss,56.5,NA,,,"Bar14, 56.53846",,,
,,,38,Lee,NA,NA,3,2000,17,Not reported,17-18,13-17,143,Home infants,Korea,Diary (Hunziker & Barr 1986),Total cry+fuss,43.7,NA,,,"Bar15, 43.75000",,,
,1,1,38,Lee,NA,NA,3,2000,13-17,Not reported,17-18,13-17,143,Home infants,Korea,Diary (Hunziker & Barr 1986),Total cry+fuss,45.94,NA,,,,,,
,1,1,38,Lee,NA,NA,3,2000,18,Not reported,17-18,18-22,143,Home infants,Korea,Diary (Hunziker & Barr 1986),Total cry+fuss,24.6,NA,,,"Bar16, 24.67949",,,
,,,39,Litmanovitz,4,3,3,2014,12,Not reported,11-12,11-12,8,HBP,Israel,24-hour behaviour diary,Crying,14.9,3.85,,,,,,
Combine the breastfeeding group and the LBP group (this is the standard formula feed) ,,,39,Litmanovitz,4,3,3,2014,12,Not reported,11-12,11-12,12,LBP,Israel,24-hour behaviour diary,Crying,63.96,21.76,,,,,,
breastfeeding group ,,,39,Litmanovitz,3,2,3,2014,12,Not reported,11-12,11-12,15,BF,Israel,24-hour behaviour diary,Crying,17.81,8.415512,,Figure 3,"Bar2, 17.81818",need to estimate SD,,
,1,1,39,Litmanovitz,NA,NA,3,2014,12,Not reported,11-12,11-12,27,Whole,Israel,24-hour behaviour diary,Crying,38.3211111,15.74797179,,,,,,
,1,1,40,Lohaus,NA,NA,3,2001,13,Not reported,13-14,13-17,20,Whole,Germany,Barr diary,Total cry+fuss,78.82,59.96,,,,,,
,1,1,41,Lohaus,,,EXCLUDE ,2004,48,Not reported,47-48,38+,57,Whole,Germany,Barr diary,Total cry+fuss,46.84,31.58,,,,,,
combine for the sample ,,,42,Lucas,4,3,4,1998,2,Not reported,1-2,1-2,49,Formula-fed,UK,24-hour behavior diary,Fussing,77,8,64,Table 4,,,,
,,,42,Lucas,4,3,4,1998,2,Not reported,1-2,1-2,49,Formula-fed,UK,24-hour behavior diary,Crying.,44,5,25,,,,,
,,,42,Lucas,4,3,4,1998,2,Not reported,1-2,1-2,49,Formula-fed,UK,24-hour behavior diary,Total cry+fuss,121,9.433981132,89,,,,,
,,,42,Lucas,4,3,4,1998,2,Not reported,1-2,1-2,49,Formula-fed,UK,24-hour behavior diary,Unsoothable Crying,23,7,49,,,,,
,,,42,Lucas,4,3,4,1998,2,Not reported,1-2,1-2,49,Formula-fed,UK,24-hour behavior diary,Total Distress,144,11.74734012,138,,,,,
,,,42,Lucas,4,3,4,1998,6,Not reported,5-6,5-6,41,Formula-fed,UK,24-hour behavior diary,Fussing,66,7,49,,,,,
,,,42,Lucas,4,3,4,1998,6,Not reported,5-6,5-6,41,Formula-fed,UK,24-hour behavior diary,Crying.,36,4,16,,,,,
,,,42,Lucas,4,3,4,1998,6,Not reported,5-6,5-6,41,Formula-fed,UK,24-hour behavior diary,Total cry+fuss,102,8.062257748,65,,,,,
,,,42,Lucas,4,3,4,1998,6,Not reported,5-6,5-6,41,Formula-fed,UK,24-hour behavior,Unsoothable Crying,7,2,4,,,,,
,,,42,Lucas,4,3,4,1998,6,Not reported,5-6,5-6,41,Formula-fed,UK,24-hour behavior,Total Distress,109,8.306623863,69,,,,,
,,,42,Lucas,3,2,4,1998,2,Not reported,1-2,1-2,43,Breastfed,UK,24-hour behavior diary,Fussing,74,8,64,,,,,
,,,42,Lucas,3,2,4,1998,2,Not reported,1-2,1-2,43,Breastfed,UK,24-hour behavior diary,Crying.,45,6,36,,,,,
,,,42,Lucas,3,2,4,1998,2,Not reported,1-2,1-2,43,Breastfed,UK,24-hour behavior diary,Total cry+fuss,119,10,100,,,,,
,,,42,Lucas,3,2,4,1998,2,Not reported,1-2,1-2,43,Breastfed,UK,24-hour behavior diary,Unsoothable Crying,4,2,4,,,,,
,,,42,Lucas,3,2,4,1998,2,Not reported,1-2,1-2,43,Breastfed,UK,24-hour behavior diary,Total Distress,123,10.19803903,104,,,,,
,1,,42,Lucas,NA,NA,4,1998,2,Not reported,1-2,1-2,92,Whole,UK,24-hour behavior diary,Fussing,75.5978261,8,64,,,,,
,1,,42,Lucas,NA,NA,4,1998,2,Not reported,1-2,1-2,92,Whole,UK,24-hour behavior diary,Crying.,44.4673913,5.48938369,30.1333333,,,,,
,1,1,42,Lucas,NA,NA,4,1998,2,Not reported,1-2,1-2,92,Whole,UK,24-hour behavior diary,Total cry+fuss,120.0652174,9.702233418,94.1333333,,,,,
,1,,42,Lucas,NA,NA,4,1998,2,Not reported,1-2,1-2,92,Whole,UK,24-hour behavior diary,Unsoothable Crying,14.1195652,5.291502622,28,,,,,
,1,,42,Lucas,NA,NA,4,1998,2,Not reported,1-2,1-2,92,Whole,UK,24-hour behavior diary,Total Distress,134.1847826,11.05139508,122.1333333,,,,,
,,,42,Lucas,3,2,4,1998,6,Not reported,5-6,5-6,36,Breastfed,UK,24-hour behavior diary,Fussing,89,10,100,,,,,
,,,42,Lucas,3,2,4,1998,6,Not reported,5-6,5-6,36,Breastfed,UK,24-hour behavior diary,Crying.,52,8,64,,,,,
,,1,42,Lucas,3,2,4,1998,6,Not reported,5-6,5-6,36,Breastfed,UK,24-hour behavior diary,Total cry+fuss,141,12.80624847,164,,,,,
,,,42,Lucas,3,2,4,1998,6,Not reported,5-6,5-6,36,Breastfed,UK,24-hour behavior diary,Unsoothable Crying,8,3,9,,,,,
,,,42,Lucas,3,2,4,1998,6,Not reported,5-6,5-6,36,Breastfed,UK,24-hour behavior diary,Total Distress,149,13.15294644,173,,,,,
,1,,42,Lucas,NA,NA,4,1998,6,Not reported,5-6,5-6,77,Whole,UK,24-hour behavior diary,Fussing,76.7532468,8.532291603,,,,,,
,1,,42,Lucas,NA,NA,4,1998,6,Not reported,5-6,5-6,77,Whole,UK,24-hour behavior diary,Crying.,43.4805195,6.196773354,,,,,,
,1,1,42,Lucas,NA,NA,4,1998,6,Not reported,5-6,5-6,77,Whole,UK,24-hour behavior diary,Total cry+fuss,120.2337663,10.54514106,,,,,,
,1,,42,Lucas,NA,NA,4,1998,6,Not reported,5-6,5-6,77,Whole,UK,24-hour behavior diary,Unsoothable Crying,7.4675325,2.516611472,,,,,,
,1,,42,Lucas,NA,NA,4,1998,6,Not reported,5-6,5-6,77,Whole,UK,24-hour behavior diary,Total Distress,127.7012988,10.84127914,,,,,,
use control only ,1,,43,Lucassen ,2,1,2,2003,7.7,Not reported,7-8,7-8,45,Control,the Netherlands,Barr diary (modified),Crying.,50,6.25,,,,,,
,1,1,43,Lucassen ,2,1,2,2003,7.7,Not reported,7-8,7-8,45,Control,the Netherlands,Barr diary (modified),Total cry+fuss,99,6.3,,Table 1,,,,
,,,43,Lucassen ,2,1,2,2003,8,Not reported,7-8,7-8,45,Colic,the Netherlands,Barr diary (modified),Total cry+fuss,368,12.1,,,,,,
use the control infants ,,,44,McGlaughlin,NA,NA,1,1999,17,Not reported,17-18,13-17,20,Crying infants,UK,CPQ,Crying - excluding fussing ,54,55,,Table 1,0-3 months time point excluded,,,
,,,44,McGlaughlin,NA,NA,1,1999,35,Not reported,35-36,33-37,20,Crying infants,UK,CPQ,Crying - excluding fussing ,60,70,,,,,,
,,,44,McGlaughlin,NA,NA,1,1999,52,Not reported,51-52,38+,20,Crying infants,UK,CPQ,Crying - excluding fussing ,44,40,,,,,,
,1,1,44,McGlaughlin,NA,NA,1,1999,17,Not reported,17-18,13-17,20,Control,UK,CPQ,Crying - excluding fussing ,38,27,,,,,,
,1,1,44,McGlaughlin,NA,NA,1,1999,35,Not reported,35-36,33-37,20,Control,UK,CPQ,Crying - excluding fussing ,31,26,,,,,,
,1,1,44,McGlaughlin,NA,NA,1,1999,52,Not reported,51-52,38+,20,Control,UK,CPQ,Crying - excluding fussing ,26,21,,,,,,
use all 5 listed here (whole is control and intervention combined at week 1 - which was baseline),1,1,45,McRury,NA,NA,3,2010,1,Not reported,1-2,1-2,35,Whole,USA,Baby's Day Diary,Total Distress (fuss + crying + colic crying),132,66,,Table 1,,,,
,1,1,45,McRury,NA,NA,3,2010,4,Not reported,3-4,3-4,16,Control,USA,Baby's Day Diary,Total Distress (fuss + crying + colic crying),126,72,,,,,,
,1,1,45,McRury,NA,NA,3,2010,6,Not reported,5-6,5-6,16,Control,USA,Baby's Day Diary,Total Distress (fuss + crying + colic crying),114,66,,,,,,
,1,1,45,McRury,NA,NA,3,2010,8,Not reported,7-8,7-8,17,Control,USA,Baby's Day Diary,Total Distress (fuss + crying + colic crying),90,72,,,,,,
,1,1,45,McRury,NA,NA,3,2010,12,Not reported,11-12,11-12,14,Control,USA,Baby's Day Diary,Total Distress (fuss + crying + colic crying),72,48,,,,,,
,1,1,46,Meijer,5,1,3,2007,7,Not reported,7-8,7-8,86,Whole,the Netherlands,CPQ,Total cry+fuss,103,76,,,,,,
,1,1,46,Meijer,NA,NA,3,2007,52,Not reported,51-52,38+,89,Whole,the Netherlands,CPQ,Total cry+fuss,32,24,,,,,,
combine into 1 group ,,,47,Milgrom,1,1,5,1995,13,Not reported,13-14,13-17,40,Non-depressed mothers,Australia,24-hour schedule,Total cry+fuss,36.5,NA,,Table 2,,,,
,,,47,Milgrom,1,1,5,1995,13,Not reported,13-14,13-17,23,Depressed mothers,Australia,24-hour diaries,Total cry+fuss,51.7,NA,,,,,,
,1,1,47,Milgrom,NA,NA,5,1995,26,Not reported,13-14,13-17,6,Whole,Australia,24-hour schedule,Total cry+fuss,44.1,NA,,,,,,
,,,47,Milgrom,NA,NA,5,1995,26,Not reported,25-26,23-27,29,Non-depressed mothers,Australia,24-hour diaries,Total cry+fuss,34.7,NA,,,,,,
,,,47,Milgrom,NA,NA,5,1995,26,Not reported,25-26,23-27,22,Depressed mothers,Australia,24-hour diaries,Total cry+fuss,32.4,NA,,,,,,
,1,1,47,Milgrom,NA,NA,5,1995,26,Not reported,25-26,23-27,15,Whole,Australia,24-hour diaries,Total cry+fuss,33.55,NA,,,,,,
"use ""whole""",1,1,48,Miller,1,1,4,1993,5,Not reported,5-6,5-6,88,Whole,Canada,Baby's Day Diary,Total cry+fuss,136.8,66,,Average from Wolke,,,,SD
,,,48,Miller,1,1,4,1993,5,Not reported,5-6,5-6,51,Unaffected,Canada,Baby's Day Diary,Total cry+fuss,119.4,47.1,,"Bar0, 1.9969199178644768",,"Bar4, 2.104722792607803",,47.13342763
,,,48,Miller,1,1,4,1993,5,Not reported,5-6,5-6,12,Responsive,Canada,Baby's Day Diary,Total cry+fuss,109.2,35.3,,"Bar1, 1.8223819301848052",,"Bar5, 1.996919917864476",,35.33383647
,,,48,Miller,1,1,4,1993,5,Not reported,5-6,5-6,16,Depressed,Canada,Baby's Day Diary,Total cry+fuss,163.8,69.6,,"Bar2, 2.7310061601642714",,"Bar6, 3.023613963039014",,69.6
,,,48,Miller,1,1,4,1993,5,Not reported,5-6,5-6,9,Reactive,Canada,Baby's Day Diary,Total cry+fuss,222.6,86.4,,"Bar3, 3.716632443531827",,"Bar7, 4.194045174537988",,86.4
"use ""comparison""",1,1,49,Miller-Loncar,1,1,5,2004,6-8,Not reported,7-8,7-8,24,Comparison,USA,Infant behavior diaries,Total cry+fuss,150,89.98,,-1.499687598,,,,
,,,49,Miller-Loncar,NA,NA,5,2004,6-8,Not reported,7-8,7-8,19,Colic,USA,Infant behavior diaries,Total cry+fuss,288,200.15,,-3.335892049,,,,
,,,50,Mohebati,1,1,4,2014,1,Not reported,1-2,1-2,204,Whole,Mexico,Adapted CPQ,Total cry+fuss,42.14,30.14,,Median values from Table 2,https://smcgrath.shinyapps.io/estmeansd/,,,
,,,50,Mohebati,1,1,4,2014,2,Not reported,1-2,1-2,204,Whole,Mexico,Adapted CPQ,Total cry+fuss,40.41,41.62,,,,,,
,1,1,50,Mohebati,1,1,4,2014,1-2,Not reported,1-2,1-2,204,Whole,Mexico,Adapted CPQ,Total cry+fuss,41.275,36.33623536,,,,,,
,1,1,50,Mohebati,1,1,4,2014,4,Not reported,3-4,3-4,204,Whole,Mexico,Adapted CPQ,Total cry+fuss,49.88,61.28,,,,,,
,1,1,50,Mohebati,5,1,4,2014,6,Not reported,5-6,5-6,204,Whole,Mexico,Adapted CPQ,Total cry+fuss,36.07,28.43,,,,,,
,1,1,50,Mohebati,5,1,4,2014,8,Not reported,7-8,7-8,204,Whole,Mexico,Adapted CPQ,Total cry+fuss,36.18,37.68,,,,,,
,1,1,50,Mohebati,5,1,4,2014,12,Not reported,11-12,11-12,204,Whole,Mexico,Adapted CPQ,Total cry+fuss,31.56,26.07,,,,,,
,1,1,50,Mohebati,NA,NA,4,2014,16,Not reported,15-16,13-17,204,Whole,Mexico,Adapted CPQ,Total cry+fuss,28.8,24.49,,,,,,
,1,1,50,Mohebati,NA,NA,4,2014,20,Not reported,19-20,18-22,204,Whole,Mexico,Adapted CPQ,Total cry+fuss,35.75,54.4,,,,,,
,1,1,50,Mohebati,NA,NA,4,2014,24,Not reported,23-24,23-27,204,Whole,Mexico,Adapted CPQ,Total cry+fuss,28.15,27.76,,,,,,
,1,1,51,Ozturk-Donmez,1,1,4,2019,3,Not reported,3-4,3-4,21,Control,Turkey,Infant Sleep Activity Record,Total cry+fuss,138.42,27.09,,Table 3,,,,
,1,1,51,Ozturk-Donmez,NA,NA,4,2019,7,Not reported,7-8,7-8,21,Control,Turkey,Infant Sleep Activity Record,Total cry+fuss,190.22,24.96,,,,,,
,1,1,51,Ozturk-Donmez,NA,NA,4,2019,11,Not reported,11-12,11-12,21,Control,Turkey,Infant Sleep Activity Record,Total cry+fuss,142.91,25.35,,,,,,
,1,1,51,Ozturk-Donmez,NA,NA,4,2019,23,Not reported,23-24,23-27,21,Control,Turkey,Infant Sleep Activity Record,Total cry+fuss,58.33,13.24,,,,,,
use care as usual ,1,,52,Popp,NA,NA,2,2019,26,Not reported,25-26,23-27,13,Care As Usual (CAU),Germany,Baby diary,Fussing,81.67,34.12,,Table 3,,,,
,1,,52,Popp,NA,NA,2,2019,26,Not reported,25-26,23-27,13,Care As Usual (CAU),Germany,Baby diary,Crying.,25,27.4,,,,,,
,1,1,52,Popp,NA,NA,2,2019,26,Not reported,25-26,23-27,13,Care As Usual (CAU),Germany,Baby diary,Total cry+fuss,106.67,43.75996344,,,,,,
,1,,52,Popp,NA,NA,2,2019,26,Not reported,25-26,23-27,13,Care As Usual (CAU),Germany,Baby diary,Unsoothable Crying,3.59,6.27,,,,,,
,1,,52,Popp,NA,NA,2,2019,26,Not reported,25-26,23-27,13,Care As Usual (CAU),Germany,Baby diary,Total Distress,110.26,44.20686938,,,,,,
,,,52,Popp,NA,NA,2,2019,26,Not reported,25-26,23-27,14,Baby Triple P (BTP),Germany,Baby diary,Fussing,80.54,50.7,,,,,,
,,,52,Popp,NA,NA,2,2019,26,Not reported,25-26,23-27,14,Baby Triple P (BTP),Germany,Baby diary,Crying.,11.55,9.72,,,,,,
,,,52,Popp,NA,NA,2,2019,26,Not reported,25-26,23-27,14,Baby Triple P (BTP),Germany,Baby diary,Total cry+fuss,92.09,51.62333193,,,,,,
,,,52,Popp,NA,NA,2,2019,26,Not reported,25-26,23-27,14,Baby Triple P (BTP),Germany,Baby diary,Unsoothable Crying,0,0,,,,,,
,,,52,Popp,NA,NA,2,2019,26,Not reported,25-26,23-27,14,Baby Triple P (BTP),Germany,Baby diary,Total Distress,92.09,51.62333193,,,,,,
,,,53,Prudhomme-White,,,EXCLUDE ,2000,8,8.9 days,7-8,,20,Control,USA,Modified Baby's Day Diary,Total cry+fuss,88.2,33.6,,,,,,
,,,53,Prudhomme-White,,,EXCLUDE ,2000,8,10.4 days,7-8,,20,Colic,USA,Modified Baby's Day Diary,Total cry+fuss,292.8,60,,,,,,
,1,1,54,Shinohara,5,1,6,2012,4-6,Not reported,5-6,5-6,31,Whole,Japan,Barr Diary,Total cry+fuss,107,36,,Table 1,,,,
,1,1,54,Shinohara,5,1,6,2012,8-10,Not reported,9-10,9-10,31,Whole,Japan,Barr Diary,Total cry+fuss,80,36,,,,,,
,1,1,54,Shinohara,5,1,6,2012,14-16,Not reported,15-16,13-17,31,Whole,Japan,Barr Diary,Total cry+fuss,62,31,,,,,,
,1,,55,St.James-Roberts,1,1,3,2003,1,Not reported,1-2,1-2,93,Whole,UK,24-hour behavior diaries,Fussing,84.53,47.17,,Table II,,,,
,1,,55,St.James-Roberts,1,1,3,2003,1,Not reported,1-2,1-2,93,Whole,UK,24-hour behavior diaries,Crying.,33.01,30.14,,,,,,
,1,1,55,St.James-Roberts,1,1,3,2003,1,Not reported,1-2,1-2,93,Whole,UK,24-hour behavior diaries,Total cry+fuss,117.54,55.97703547,,,,,,
,1,,55,St.James-Roberts,1,1,3,2003,1,Not reported,1-2,1-2,93,Whole,UK,24-hour behavior diaries,Colic,9.21,23.73,,,,,,
,1,,55,St.James-Roberts,1,1,3,2003,1,Not reported,1-2,1-2,93,Whole,UK,24-hour behavior diaries,Total Distress,126.75,72.29,,#Wolke reports SD 75.3,,,,
combine into a whole group ,,,56,St.James-Roberts,5,1,6,2005,5-6,Not reported,5-6,5-6,18,High maternal state anxiety,UK,Baby Day Diary,Total Distress (fuss + crying + colic crying),180.56,110.32,,,,,,
,,,56,St.James-Roberts,NA,NA,6,2005,12,Not reported,11-12,11-12,18,High maternal state anxiety,UK,Baby Day Diary,Total Distress (fuss + crying + colic crying),126.2,105.34,,,,,,
,,,56,St.James-Roberts,5,1,6,2005,5-6,Not reported,5-6,5-6,70,Low maternal state anxiety,UK,Baby Day Diary,Total Distress (fuss + crying + colic crying),138.17,87.16,,,,,,
,,,56,St.James-Roberts,NA,NA,6,2005,12,Not reported,11-12,11-12,66,Low maternal state anxiety,UK,Baby Day Diary,Total Distress (fuss + crying + colic crying),84.68,60.93,,,,,,
,1,1,56,St.James-Roberts,5,1,6,2005,5-7,Not reported,5-6,5-6,88,Whole,UK,Baby Day Diary,Total Distress (fuss + crying + colic crying),146.8406818,92.20063229,,,,,,
,1,1,56,St.James-Roberts,NA,NA,6,2005,13,Not reported,11-12,11-12,84,Whole,UK,Baby Day Diary,Total Distress (fuss + crying + colic crying),93.5771429,72.41066689,,,,,,
use control ,1,1,57,St.James-Roberts,5,1,3,1993,6,Not reported,5-6,5-6,16,Control,UK,Barr diary,Total cry+fuss,136,54,,,,,,
,,,57,St.James-Roberts,NA,NA,3,1993,6,Not reported,5-6,5-6,16,Referred,UK,Barr diary,Total cry+fuss,197,65,,,,,,
,1,1,58,St.James-Roberts,NA,NA,3,1999,1,Not reported,1-2,1-2,14,Whole,UK,Behavior diaries,Total cry+fuss,170.42,113.88,,#Wolke reports SD: 133.9 in 1 week,,,,
,1,,58,St.James-Roberts,NA,NA,3,1999,1,Not reported,1-2,1-2,14,Whole,UK,Behavior diaries,Crying.,50.24,45,,,,,,
,1,1,58,St.James-Roberts,NA,NA,3,1999,6,Not reported,5-6,5-6,20,Whole,UK,Behavior diaries,Total cry+fuss,129,65.11,,,,,,
,1,,58,St.James-Roberts,NA,NA,3,1999,6,Not reported,5-6,5-6,20,Whole,UK,Behavior diaries,Crying.,43.25,33.89,,,,,,
,1,1,58,St.James-Roberts,NA,NA,3,1999,12,Not reported,11-12,11-12,20,Whole,UK,Behavior diaries,Total cry+fuss,82.25,45.36,,,,,,
,1,,58,St.James-Roberts,NA,NA,3,1999,12,Not reported,11-12,11-12,20,Whole,UK,Behavior diaries,Crying.,22.33,19.44,,,,,,
,1,1,59,St.James-Roberts,5,1,5,2001,1,Not reported,1-2,1-2,191,Control,UK,Baby Day Diary,Total cry+fuss,107,77,,"#sample size in 3 & 6 weeks not reported. Taken from Wolke. SDs as reported in Wolke, St.James-Roberts reports day/night separately",,,,
,1,1,59,St.James-Roberts,5,1,5,2001,3,Not reported,3-4,3-4,181,Control,UK,Baby Day Diary,Total cry+fuss,121,72,,,,,,
,1,1,59,St.James-Roberts,5,1,5,2001,6,Not reported,5-6,5-6,173,Control,UK,Baby Day Diary,Total cry+fuss,102,66,,,,,,
,1,1,59,St.James-Roberts,5,1,5,2001,12,Not reported,11-12,11-12,152,Control,UK,Baby Day Diary,Total cry+fuss,60,42,,,,,,
,1,,60,St.James-Roberts,5,1,6,2006,1,Not reported,1-2,1-2,111,Whole,UK,Behavior diaries,Fussing,82,50,,Table 1,,,,
,1,,60,St.James-Roberts,5,1,6,2006,1,Not reported,1-2,1-2,111,Whole,UK,Behavior diaries,Crying.,32,24,,,,,,
,1,1,60,St.James-Roberts,5,1,6,2006,1,Not reported,1-2,1-2,111,Whole,UK,Behavior diaries,Total cry+fuss,114,55.4616985,,,,,,
,1,,60,St.James-Roberts,5,1,6,2006,1,Not reported,1-2,1-2,111,Whole,UK,Behavior diaries,Unsoothable Crying,6,13,,,,,,
,1,,60,St.James-Roberts,5,1,6,2006,1,Not reported,1-2,1-2,111,Whole,UK,Behavior diaries,Total Distress,120,56.96490147,,,,,,
,1,,60,St.James-Roberts,5,1,6,2006,5,Not reported,5-6,5-6,81,Whole,UK,Behavior diaries,Fussing,88,42,,,,,,
,1,,60,St.James-Roberts,5,1,6,2006,5,Not reported,5-6,5-6,81,Whole,UK,Behavior diaries,Crying.,33,30,,,,,,
,1,1,60,St.James-Roberts,5,1,6,2006,5,Not reported,5-6,5-6,81,Whole,UK,Behavior diaries,Total cry+fuss,121,51.6139516,,,,,,
,1,,60,St.James-Roberts,5,1,6,2006,5,Not reported,5-6,5-6,81,Whole,UK,Behavior diaries,Unsoothable Crying,5,12,,,,,,
,1,,60,St.James-Roberts,5,1,6,2006,5,Not reported,5-6,5-6,81,Whole,UK,Behavior diaries,Total Distress,126,52.9905652,,,,,,
,1,,61,St.James-Roberts,1,1,6,2006,1,Not reported,1-2,1-2,70,Whole,Denmark,Behavior diaries,Fussing,61,37,,,,,,
,1,,61,St.James-Roberts,1,1,6,2006,1,Not reported,1-2,1-2,70,Whole,Denmark,Behavior diaries,Crying.,15,18,,,,,,
,1,1,61,St.James-Roberts,1,1,6,2006,1,Not reported,1-2,1-2,70,Whole,Denmark,Behavior diaries,Total cry+fuss,76,41.14608122,,,,,,
,1,,61,St.James-Roberts,1,1,6,2006,1,Not reported,1-2,1-2,70,Whole,Denmark,Behavior diaries,Unsoothable Crying,4,9,,,,,,
,1,,61,St.James-Roberts,1,1,6,2006,1,Not reported,1-2,1-2,70,Whole,Denmark,Behavior diaries,Total Distress,80,42.11887938,,,,,,
,1,,61,St.James-Roberts,5,1,6,2006,5,Not reported,5-6,5-6,64,Whole,Denmark,Behavior diaries,Fussing,58,40,,,,,,
,1,,61,St.James-Roberts,5,1,6,2006,5,Not reported,5-6,5-6,64,Whole,Denmark,Behavior diaries,Crying.,14,16,,,,,,
,1,1,61,St.James-Roberts,5,1,6,2006,5,Not reported,5-6,5-6,64,Whole,Denmark,Behavior diaries,Total cry+fuss,72,43.08131846,,,,,,
,1,,61,St.James-Roberts,5,1,6,2006,5,Not reported,5-6,5-6,64,Whole,Denmark,Behavior diaries,Unsoothable Crying,9,21,,,,,,
,1,,61,St.James-Roberts,5,1,6,2006,5,Not reported,5-6,5-6,64,Whole,Denmark,Behavior diaries,Total Distress,81,47.92702787,,,,,,
,1,1,62,St.James-Roberts,3,2,4,1994,2,Not reported,1-2,1-2,100,Whole,India,CPQ,Total cry+fuss,13,NA,,,,,,
,1,1,62,St.James-Roberts,3,2,4,1994,6,Not reported,5-6,5-6,100,Whole,India,CPQ,Total cry+fuss,32,NA,,,,,,
,1,1,62,St.James-Roberts,1,1,4,1994,12,Not reported,11-12,11-12,99,Whole,India,CPQ,Total cry+fuss,27,NA,,,,,,
,1,1,63,St.James-Roberts,NA,NA,6,1996,2,Not reported,1-2,1-2,122,Whole,UK,Baby's Day Diary,Total cry+fuss,138,77,,"# sample size in Wolke: 128, 94, 69. Table 1",,,,
,1,,63,St.James-Roberts,NA,NA,6,1996,2,Not reported,1-2,1-2,122,Whole,UK,Baby's Day Diary,Crying.,61,52,,,,,,
,1,1,63,St.James-Roberts,NA,NA,6,1996,6,Not reported,5-6,5-6,93,Whole,UK,Baby's Day Diary,Total cry+fuss,128,70,,,,,,
,1,,63,St.James-Roberts,NA,NA,6,1996,6,Not reported,5-6,5-6,93,Whole,UK,Baby's Day Diary,Crying.,40,40,,,,,,
,1,1,63,St.James-Roberts,NA,NA,6,1996,12,Not reported,11-12,11-12,68,Whole,UK,Baby's Day Diary,Total cry+fuss,97,44,,,,,,
,1,,63,St.James-Roberts,NA,NA,6,1996,12,Not reported,11-12,11-12,68,Whole,UK,Baby's Day Diary,Crying.,29,21,,,,,,
,1,1,63,St.James-Roberts,NA,NA,6,1996,40,Not reported,39-40,38+,73,Whole,UK,Baby's Day Diary,Total cry+fuss,50,32,,,,,,
,1,,63,St.James-Roberts,NA,NA,6,1996,40,Not reported,39-40,38+,73,Whole,UK,Baby's Day Diary,Crying.,11,11,,,,,,
create a whole group ,,,64,Stifter,NA,NA,5,2003,6,Not reported,5-6,5-6,106,Non-Colic,USA,Cry diary,Crying.,23.9,20,,#Wolke reports average for Colic and non-Colic group. Table 1,,,,
,,,64,Stifter,NA,NA,5,2003,6,Not reported,5-6,5-6,106,Non-Colic,USA,Cry diary,Fussing,73.5,32.8,,,,,,
,,,64,Stifter,NA,NA,5,2003,6,Not reported,5-6,5-6,106,Non-Colic,USA,Cry diary,Total cry+fuss,97.4,38.41666305,,,,,,
,,,64,Stifter,NA,NA,5,2003,6,Not reported,5-6,5-6,22,Colic,USA,Cry diary,Crying.,73.8,40.1,,,,,,
,,,64,Stifter,NA,NA,5,2003,6,Not reported,5-6,5-6,22,Colic,USA,Cry diary,Fussing,153.5,45.9,,,,,,
,,,64,Stifter,NA,NA,5,2003,6,Not reported,5-6,5-6,22,Colic,USA,Cry diary,Total cry+fuss,227.3,60.94932321,,,,,,
,1,,64,Stifter,NA,NA,5,2003,6,Not reported,5-6,5-6,128,Whole,USA,Cry diary,Crying.,32.4765625,24.52213286,,,,,,
,1,,64,Stifter,NA,NA,5,2003,6,Not reported,5-6,5-6,128,Whole,USA,Cry diary,Fussing,87.25,35.32234892,,,,,,
,1,1,64,Stifter,NA,NA,5,2003,6,Not reported,5-6,5-6,128,Whole,USA,Cry diary,Total cry+fuss,119.7265625,43.00003876,,,,,,
create a whole group ,,,65,Wake,NA,NA,5,2006,9,Not reported,9-10,9-10,85,Crying problem,Australia,Barr diary,Total cry+fuss,150,78,,#Wolke reports average for both Crying-non Crying problem group. Table 2,,,,
,,,65,Wake,NA,NA,5,2006,9,Not reported,9-10,9-10,361,Non-Crying problem,Australia,Barr diary,Total cry+fuss,108,60,,Sample numbers:,85.186,361.26,,
,1,1,65,Wake,NA,NA,5,2006,9,Not reported,9-10,9-10,446,Whole,Australia,Barr diary,Total cry+fuss,116.0044843,63.79612799,,,,,,
,,,65,Wake,NA,NA,5,2006,17,Not reported,17-18,13-17,55,Crying problem,Australia,Barr diary,Total cry+fuss,120,78,,,55.04,,,
,,,65,Wake,NA,NA,5,2006,17,Not reported,17-18,13-17,375,Non-Crying problem,Australia,Barr diary,Total cry+fuss,72,48,,,374.96,,,
,1,1,65,Wake,NA,NA,5,2006,17,Not reported,17-18,13-17,695,Whole,Australia,Barr diary,Total cry+fuss,78.1395349,52.73438999,,,,,,
,,,65,Wake,NA,NA,5,2006,52,Not reported,51-52,38+,69,Sleeping problems,Australia,Barr diary,Total cry+fuss,78,54,,,69.012,,,
,,,65,Wake,NA,NA,5,2006,52,Not reported,51-52,38+,357,Non-sleeping problems,Australia,Barr diary,Total cry+fuss,54,42,,,356.988,,,
,1,1,65,Wake,NA,NA,5,2006,52,Not reported,51-52,38+,426,Whole,Australia,Barr diary,Total cry+fuss,57.8873239,44.14470203,,,,,,
,1,,66,Walker,1,1,3,1994,1,Not reported,1-2,1-2,21,Whole,Australia,Barr diary,Crying - excluding fussing ,56.69,NA,,Figure 1: Crying in different periods of time,,,,
,1,1,66,Walker,1,1,3,1994,2,Not reported,1-2,1-2,21,Whole,Australia,Barr diary,Crying - excluding fussing ,51.68,NA,,,,,,
,1,1,66,Walker,NA,NA,3,1994,4,Not reported,3-4,3-4,21,Whole,Australia,Barr diary,Crying - excluding fussing ,49.7,NA,,,,,,
,1,1,66,Walker,NA,NA,3,1994,6,Not reported,5-6,5-6,21,Whole,Australia,Barr diary,Crying - excluding fussing ,32.86,NA,,,,,,
,1,1,66,Walker,NA,NA,3,1994,8,Not reported,7-8,7-8,21,Whole,Australia,Barr diary,Crying - excluding fussing ,33.35,NA,,,,,,
,1,,66,Walker ,1,1,3,1994,1,Not reported,1-2,1-2,21,Whole,Australia,Barr diary,Fussing ,57,,,,,,,
,1,,66,Walker ,1,1,3,1994,1,Not reported,1-2,1-2,21,Whole,Australia,Barr diary,Total cry+fuss,113.69,,,,,,,
,1,,66,Walker ,NA,NA,3,1994,8,Not reported,7-8,7-8,21,Whole,Australia,Barr diary,Fussing ,35,,,,,,,
,1,,66,Walker ,NA,NA,3,1994,8,Not reported,7-8,7-8,21,Whole,Australia,Barr diary,Total cry+fuss,68.35,,,,,,,
,1,1,67,de Weerth,5,1,5,2007,6,0.4,5-6,5-6,102,Whole,the Netherlands,Baby Day Diary,Total cry+fuss,150.4,66.3,,#Wolke reports sample 103. Findings taken from Wolke,,,,
,,,68,Wells,,,EXCLUDE,1995,12,Not reported,11-12,,24,Breastfed,UK,Activity chart based on Barr diary,Fussy,78,42,,Table 3,,,,
,,,68,Wells,,,EXCLUDE,1995,12,Not reported,11-12,,24,Breastfed,UK,Activity chart based on Barr diary,Crying,30,36,,,,,,
,,,68,Wells,,,EXCLUDE,1995,12,Not reported,11-12,,24,Breastfed,UK,Activity chart based on Barr diary,Total cry+fuss,108,55.31726674,,,,,,
,,,68,Wells,,,EXCLUDE,1995,12,Not reported,11-12,,25,Formula-fed,UK,Activity chart based on Barr diary,Fussy,72,36,,,,,,
,,,68,Wells,,,EXCLUDE,1995,12,Not reported,11-12,,25,Formula-fed,UK,Activity chart based on Barr diary,Crying,24,18,,,,,,
,,,68,Wells,,,EXCLUDE,1995,12,Not reported,11-12,,25,Formula-fed,UK,Activity chart based on Barr diary,Total cry+fuss,96,40.24922359,,,,,,
,1,1,69,Wurmser,NA,NA,5,2006,6,Not reported,5-6,5-6,64,Whole,Germany,German adaptation of Barr & Hunziker diary,Total cry+fuss,145.6,84.4,,Table 3,,,,
,1,,69,Wurmser,NA,NA,5,2006,6,Not reported,5-6,5-6,64,Whole,Germany,German adaptation of Barr & Hunziker diary,Unsoothable Crying,10.5,26,,#Wolke doesn't include Unsoothable Crying,,,,
,1,,69,Wurmser,NA,NA,5,2006,6,Not reported,5-6,5-6,64,Whole,Germany,German adaptation of Barr & Hunziker diary,Total Distress,156.1,88.3139853,,,,,,
,1,,69,Wurmser,NA,NA,5,2006,6,Not reported,5-6,5-6,64,Whole,Germany,German adaptation of Barr & Hunziker diary,Crying.,43.3,49.9,,,,,,
,1,1,69,Wurmser,NA,NA,5,2006,13,Not reported,13-14,13-17,63,Whole,Germany,German adaptation of Barr & Hunziker diary,Total cry+fuss,107.9,58.2,,,,,,
,1,,69,Wurmser,NA,NA,5,2006,13,Not reported,13-14,13-17,63,Whole,Germany,German adaptation of Barr & Hunziker diary,Unsoothable Crying,6.5,15,,,,,,
,1,,69,Wurmser,NA,NA,5,2006,13,Not reported,13-14,13-17,63,Whole,Germany,German adaptation of Barr & Hunziker diary,Total distress,114.4,60.10191345,,,,,,
,1,,69,Wurmser,NA,NA,5,2006,13,Not reported,13-14,13-17,63,Whole,Germany,German adaptation of Barr & Hunziker diary,Crying.,28.7,28.1,,,,,,
,1,1,69,Wurmser,NA,NA,5,2006,26,Not reported,25-26,23-27,63,Whole,Germany,German adaptation of Barr & Hunziker diary,Total cry+fuss,103.4,62,,,,,,
,1,,69,Wurmser,NA,NA,5,2006,26,Not reported,25-26,23-27,63,Whole,Germany,German adaptation of Barr & Hunziker diary,Unsoothable Crying,2.3,5.1,,,,,,
,1,,69,Wurmser,NA,NA,5,2006,26,Not reported,25-26,23-27,63,Whole,Germany,German adaptation of Barr & Hunziker diary,Total distress,105.7,62.20940443,,,,,,
,1,,69,Wurmser,NA,NA,5,2006,26,Not reported,25-26,23-27,63,Whole,Germany,German adaptation of Barr & Hunziker diary,Crying.,23.1,24.9,,,,,,